-1.000000000000000000e+00,-1.000000000000000000e+00,0.000000000000000000e+00
-1.000000000000000000e+00,1.000000000000000000e+00,-9.999999958776927267e-01
1.000000000000000000e+00,-1.000000000000000000e+00,9.999999958776927267e-01
1.000000000000000000e+00,1.000000000000000000e+00,0.000000000000000000e+00
-2.210063376624260556e-02,-8.989386377182202459e-01,9.996888975946280897e-01
7.685358570037514880e-02,-9.170611307093472497e-01,9.999035077854206977e-01
6.161889040593926392e-01,9.905072580182041619e-01,-9.537382119346855536e-01
2.774195374872940878e-01,8.917191725273643232e-01,-9.957122593575312708e-01
4.734397900290152617e-01,6.441127654502836197e-01,-6.928232741324417132e-01
-7.710546074663870986e-01,4.700259300091651493e-01,-9.999918513824308519e-01
6.429632744787427967e-01,-8.522314678704250301e-01,9.999993580789807712e-01
-5.842774661462111219e-01,6.113536125024170431e-01,-9.999871628856557004e-01
8.289575422612465161e-01,-7.022242656658499449e-01,9.999995520889273237e-01
9.162016773218841781e-01,-2.565281064476523376e-01,9.999838591741347926e-01
4.371789139948611957e-01,-7.921387885579813659e-01,9.999908342278271967e-01
7.538487465408705290e-01,1.670123838309205411e-01,9.943609516110967217e-01
3.629015122884202693e-01,7.723034230635441588e-01,-9.672026173921003389e-01
-6.420292540024952199e-01,-6.075952439405316596e-01,-1.704887970599862357e-01
-7.859363547892384005e-02,6.330643858019138204e-01,-9.983782415256122755e-01
2.643596357385782358e-01,2.902069597409404622e-01,-1.285218868308543316e-01
-8.992000719414261489e-02,1.256282494071598865e-01,-7.923599833932809533e-01
3.402501075084309878e-01,2.905317496162755919e-01,2.435944677510932521e-01
-9.065805751885207542e-01,-4.768001466759581586e-01,-9.731681016071170864e-01
-9.832318090251506160e-01,7.144359013655967594e-01,-9.999999152474469133e-01
-9.388300080008722404e-01,6.879182406650146131e-01,-9.999998277528361346e-01
-1.800007802481395913e-02,6.164445964929043953e-01,-9.964932110808472077e-01
-7.942959996513065946e-01,7.493240311088795735e-01,-9.999996044755870006e-01
-1.510420873643507633e-01,6.006924938972502126e-01,-9.989134438259593685e-01
-5.329854843507171314e-01,-1.721025006548306813e-01,-9.472613084990608723e-01
-8.753403876477638956e-01,8.546177211575969324e-01,-9.999999386354750941e-01
3.860325823947743373e-01,6.218939302914030520e-01,-8.272328840103936320e-01
-2.918180486280297359e-02,-9.319986842591920784e-01,9.997600647801170304e-01
-7.914967510457788791e-01,-7.380894488530045372e-01,-2.608651552372407978e-01
7.451940023584346928e-01,1.867921940858019436e-01,9.925132560686127370e-01
9.566780104027443610e-01,-2.546411732028046604e-01,9.999890267508462216e-01
2.367118635726239706e-01,-5.459947649399099490e-01,9.992027305203192711e-01
2.513128497638938974e-02,3.301291928625813554e-01,-9.095632465657753629e-01
-9.020768631982636343e-01,-4.109367033293231941e-03,-9.997481441648611300e-01
-3.495277720786691411e-01,4.037696957566996314e-01,-9.989302844411094284e-01
6.963873805390907723e-01,8.646249778219217141e-02,9.955209472063363263e-01
7.870966794543907685e-01,2.219232031975870711e-02,9.990474546084573415e-01
7.640446748685874034e-01,-7.144993230497260761e-01,9.999992417806988776e-01
8.717017512795832701e-02,8.746276457878066068e-03,3.731859854706272572e-01
4.879716265435345424e-01,6.630176801580169865e-01,-7.040217592415390913e-01
-8.240828581520411866e-01,9.017187165745166322e-01,-9.999999360310865004e-01
-3.985419958142475405e-01,8.896949972582701704e-01,-9.999949150496506567e-01
-9.255346670982353974e-01,6.404180259741729664e-01,-9.999996836383793219e-01
3.988279081733847597e-01,-2.355196145902995752e-01,9.964898085007843909e-01
7.628648900551775469e-01,-8.292497642829612658e-01,9.999997564636159408e-01
2.498574325459324008e-02,-7.004886238788492481e-01,9.985873713997061030e-01
-9.679097302180990070e-01,-4.256745817099443219e-01,-9.912053467538887164e-01
3.692283667319422591e-01,-1.808301877954210379e-01,9.918644702894595655e-01
8.562370296813510695e-01,1.442013398222581344e-01,9.983843499079791961e-01
3.800945344462935971e-02,-3.864466863003799268e-01,9.717215250362775114e-01
2.542163090494702349e-01,5.163540813240574678e-01,-8.644496103300833845e-01
-2.998562963688677918e-02,-9.680650887970181362e-01,9.998313578823816439e-01
9.987017839468737002e-02,-4.646906888028785598e-01,9.929588816320958911e-01
6.829998960757577287e-02,-8.801951029102887958e-01,9.998480379483569713e-01
-5.491843878025937098e-01,5.919154714105199222e-01,-9.999778541953234789e-01
2.039011982237235454e-01,-2.735922009755815676e-01,9.832639473674827935e-01
-3.796533573533038552e-01,-9.531012265394480654e-01,9.935556974549217824e-01
7.095152074290480559e-01,-3.484790196955920294e-01,9.999491596644312086e-01
-3.205197833510180505e-01,8.622377772658611494e-01,-9.999853992217521137e-01
5.142249627958306313e-01,-1.965633094602230457e-01,9.983640863666182197e-01
3.775612629071531945e-01,-1.435462839092396248e-01,9.891476025645479231e-01
-3.686890625206533656e-01,-6.253228157790147179e-01,8.573268933037254680e-01
4.301582312730551916e-01,-1.096121894161794508e-01,9.909868780806990740e-01
-5.742562406897084859e-01,-8.821360565253766328e-01,9.120193372522069630e-01
5.005780422969501320e-01,-3.483010085409787848e-01,9.995885607044392440e-01
1.276633391930059869e-01,-5.297789479709194005e-01,9.972126677663701866e-01
8.229637962175619936e-01,5.837196221881018054e-01,8.324982592829148764e-01
8.383580520389124491e-01,-3.979952033000322409e-01,9.999914569258514518e-01
-5.477275189415466983e-01,2.755302508849621912e-01,-9.994684409855310037e-01
8.274574411403219365e-01,3.469948696723048620e-01,9.837495865949215101e-01
-4.644854518417211864e-01,-8.774121305627806677e-01,9.683205203016764795e-01
4.851007487146659081e-01,-2.488892176837753656e-01,9.987026108608818564e-01
-4.689997375045700245e-01,3.936572936871978179e-01,-9.996415073476783153e-01
9.886124443758577129e-01,6.986151233161910223e-01,8.956902252197548320e-01
6.021574685801049931e-01,2.097251893665512679e-01,9.612544169301375785e-01
6.920817589797243485e-01,5.195503253525108889e-01,6.976241814544165143e-01
2.469816884737823237e-01,-3.929107866376515545e-01,9.966788345999940679e-01
-7.445287829293478765e-01,4.540654176900720262e-01,-9.999875376823765816e-01
5.238397016364544356e-01,3.343952781637511418e-01,7.385228588736877375e-01
-6.059225358397357653e-01,6.988145172766233593e-01,-9.999956885035345966e-01
5.889229271224227791e-01,7.279767145146689433e-01,-6.013561955517375823e-01
-3.262593658546635300e-01,-6.012862769580720190e-01,8.798570928148856662e-01
5.431704259631837672e-01,6.166133450393125326e-01,-3.515529489410400554e-01
-7.310954819321298093e-01,4.354477388026207763e-01,-9.999828290853164381e-01
8.283312721813580470e-01,-8.184736715152636233e-01,9.999998590558785150e-01
-6.445477337094800419e-01,7.589747259645558408e-01,-9.999983945046487799e-01
-9.105585731421530493e-01,-4.423330350729797189e-01,-9.816536331568445073e-01
-8.908065382074354943e-01,1.534133449224877044e-01,-9.999416517286554562e-01
-9.572326230307484085e-01,9.485831191120672745e-01,-9.999999894275073409e-01
-9.272217804403519725e-01,8.365198439186631862e-01,-9.999999562278946152e-01
-8.785914769860256879e-01,-5.830963523988073050e-01,-9.009939542632194875e-01
5.439014345342674250e-01,-3.653964311659476660e-01,9.997751200655222714e-01
-3.016908055650067144e-01,5.118753561738338398e-01,-9.994143611756604040e-01
6.503796140327755548e-01,-1.598399942754715752e-01,9.993944368642311282e-01
2.366898956159237954e-01,-3.843405106610973121e-01,9.959907997411104885e-01
-6.214704221550650942e-01,-2.335903336945570619e-01,-9.594864368250199949e-01
-9.724379877895605873e-01,6.376966117998366101e-01,-9.999997966218773238e-01
-9.237480341541288720e-01,9.483634024957703357e-01,-9.999999851900590597e-01
-1.659620314380709782e-01,7.048799339393450047e-01,-9.996696763573067468e-01
-9.223530820379652884e-01,-8.727703842737084550e-01,-2.429563109495468665e-01
9.956082452761305657e-01,-5.472634870413737307e-01,9.999996015047831754e-01
4.248064196398577685e-01,-2.139475456606019232e-01,9.966408706116393068e-01
1.422189297760598770e-01,-1.551036493003574712e-01,9.026995900144425544e-01
7.251704031911139214e-01,-2.204375063423806846e-01,9.998435869235560158e-01
-4.946626014265054216e-02,9.335989307816838778e-01,-9.998924504089768961e-01
9.831116833005555389e-01,-4.489143657488032790e-01,9.999987926877059730e-01
4.965118316084591310e-01,-5.815999934090827495e-01,9.999584241819977626e-01
8.420313813661115532e-01,-1.697294172184704575e-01,9.999192781422167053e-01
8.364183346693003784e-01,3.591854702863146453e-01,9.832206535672436409e-01
-5.473833768966678281e-01,4.799460764454579476e-01,-9.999309156195648196e-01
-1.040582151191320470e-01,-2.430080833246062166e-01,6.010243970735414942e-01
5.824064923296923268e-01,-8.863150144651121831e-01,9.999991635242490018e-01
-1.427193977008889281e-01,7.305010558348781213e-01,-9.996774391148057770e-01
7.542146880653304297e-01,5.032508133190516375e-02,9.982473486783717265e-01
9.622199224447192112e-01,6.218905390718669768e-01,9.356146346016291915e-01
-2.150234770587453603e-01,7.821580684563074204e-01,-9.999066089434137661e-01
5.832093093452406229e-02,-4.924345419765774334e-01,9.919207429377828733e-01
-7.892267362022733490e-01,-4.611794919977847407e-01,-9.275055824489220058e-01
-8.179321937601977677e-01,-2.175889034427780366e-01,-9.950716593709904023e-01
2.803375700661698833e-01,8.053268110907685351e-01,-9.895586311528993262e-01
1.873879890825425054e-01,7.132856572293244657e-01,-9.896525653330560113e-01
-1.845974834407020371e-01,-7.851045624370827092e-01,9.950797049858314258e-01
7.688961052991056810e-01,5.293346822959208442e-01,8.329845093053109828e-01
6.265055013174005705e-01,-1.456141739723533224e-01,9.991137334479818222e-01
3.184580900107270018e-02,-6.308259798823350195e-01,9.973544977232815523e-01
-5.929964458868284272e-01,-5.401484074543001501e-01,-2.582572321062022169e-01
1.026443349678136663e-01,-9.732598147648074960e-01,9.999574961360171432e-01
-9.775102150898384856e-01,-7.101734519933113887e-01,-8.708734350034267324e-01
7.766576916402498920e-01,9.222400033869475600e-01,-6.217860001128200365e-01
-3.485245765605555768e-01,-9.337577123775189225e-01,9.942700773689562288e-01
1.532886653882679084e-01,3.272714359591675226e-01,-7.013303591405695148e-01
-7.133965142139451210e-01,6.456334701532042697e-01,-9.999974948298853139e-01
-7.422117199572215718e-01,8.500539367338277863e-02,-9.994890707610586400e-01
3.029467682036317555e-01,2.128469428726154078e-01,4.223092015604669180e-01
5.556579289456571313e-01,4.723540121051281737e-01,3.939943245031464758e-01
-4.768467413582622161e-01,5.276338260589292783e-01,-9.999131824617661923e-01
-6.540612184617309310e-01,-5.514963717363723372e-01,-4.721427822754891701e-01
-6.726778396262849125e-01,9.007584250511586621e-01,-9.999997064493419963e-01
1.281871360084321232e-01,-4.249745237068238701e-01,9.921120671996087603e-01
-1.956173696361174219e-01,-7.775909915232208647e-01,9.940807944065885859e-01
-9.948552717641081511e-01,2.966502912298913941e-01,-9.999950785674940335e-01
-1.400700010572950571e-01,-1.140669188693768099e-01,-1.292877369770703000e-01
7.501843674760546588e-01,-8.802137085570320707e-01,9.999998339262156088e-01
-6.173109333526483056e-02,-7.183769971435751689e-01,9.971904125991953860e-01
-3.346209951342093980e-02,-1.217871661378164827e-01,4.149907716726409235e-01
-2.085372798739968392e-01,7.525720337617540778e-01,-9.998660458438882737e-01
6.214820489667776116e-01,-6.468346786225602774e-01,9.999937941812516717e-01
-2.211732321572617010e-01,3.488003725708122005e-03,-8.087158466028998571e-01
7.435377330441748089e-01,9.485658630782056733e-02,9.969578370695927338e-01
5.972703931139629052e-01,4.653344229928091380e-01,5.781503155288634233e-01
-2.312864532066316592e-02,5.873006190159135720e-01,-9.955434316319334842e-01
-1.796504289528246812e-01,-1.791082230664686747e-02,-6.688714048231745313e-01
8.402459438692764238e-01,4.478837232239984978e-02,9.992981420504436496e-01
-3.351535983511766403e-01,-8.382336947844348796e-01,9.870176704013532420e-01
3.329163886927277716e-02,-1.503165550273219964e-01,7.249693319188578178e-01
-2.262147864653685225e-02,-3.955918326487697367e-01,9.531250957360558607e-01
-8.911563919074043660e-01,-2.658688079280162597e-01,-9.961575754538589678e-01
-4.782769541897680110e-01,-9.160422935420533541e-01,9.752017660578862213e-01
-2.895299376891422583e-01,4.430579236016638500e-01,-9.986843040276393024e-01
-4.988510750841905761e-01,7.511598957873566462e-02,-9.935889623007934102e-01
-5.721585971466256471e-01,8.045631673642676951e-01,-9.999979010461710338e-01
7.757921552915798546e-01,-1.485661785782779187e-01,9.998065580100170546e-01
6.700561831396014689e-01,1.893650520404115412e-01,9.837863853082372545e-01
-1.020707725382399289e-01,-2.225518203312426557e-01,5.387588703003383106e-01
8.014400086241257881e-01,8.434068105627097189e-01,-2.068076141821248437e-01
7.172937907475263053e-01,3.676339505538461783e-01,9.411816567601650751e-01
-9.885727551555973935e-01,3.013285385896766755e-01,-9.999949989779549631e-01
2.314434606522333127e-01,-6.000254846987498336e-01,9.995103340509110534e-01
2.919223874115530748e-01,-9.289941276110227353e-01,9.999900309269696974e-01
-9.328531028001618708e-02,-5.502430132916777961e-01,9.794878702003975146e-01
-1.913174806124340321e-02,2.152116162608330718e-01,-8.248217628135168233e-01
-7.402365970541469054e-02,-4.767545070543981467e-01,9.649796715585058360e-01
2.232183575512658447e-01,3.664903188738324324e-01,-6.146494187185912450e-01
-5.232453926668274580e-01,-4.216395543321826977e-01,-4.684082191317096022e-01
-3.079597745402731235e-01,4.850603363172689697e-01,-9.992808305672139513e-01
-4.717689815335526227e-01,8.098838097780576284e-01,-9.999945689791946979e-01
2.386927344193803258e-01,4.882408192158771421e-01,-8.476488055052038284e-01
6.501891560182249119e-01,5.934093877686634766e-01,2.765096934762316661e-01
-1.686016614244938427e-01,2.588957979639294749e-01,-9.725569937901739070e-01
-8.490169008279424556e-01,2.375742902126039002e-01,-9.999618041553838266e-01
7.751735596537412398e-02,-7.727786501730540270e-01,9.995943483320072209e-01
-4.439673639346721767e-01,-8.927854783101474290e-01,9.777677718197204104e-01
-5.691009302886542720e-01,-5.677361007136243476e-01,-6.824041945888506717e-03
-5.380121073874708504e-01,-7.672719518741226707e-01,8.165243749195106870e-01
-7.267010629204466721e-01,-7.340067304900108613e-01,3.651209969043893444e-02
9.218907169666037404e-01,5.461263977550836479e-01,9.543871821889483575e-01
9.938252040934298925e-01,-5.605482185563650521e-01,9.999996448008516836e-01
-9.558900974655366589e-01,-3.443952800622513966e-01,-9.955905624890637462e-01
-5.628376052995798240e-01,-7.884379092781212961e-01,8.103341772891254902e-01
6.708690715305736241e-01,6.615710165384540709e-01,4.645681004057291424e-02
-2.587229697788411276e-01,3.962022290621816101e-01,-9.971417192475782176e-01
-4.796525784146730143e-01,-3.517747121826608758e-01,-5.644836120247683775e-01
3.933154480602798486e-01,-4.369631125073791811e-01,9.995044717634943288e-01
-6.700315968080170492e-01,4.997429262474213374e-01,-9.999833750563765777e-01
3.795281026087102827e-01,8.350536990749750643e-01,-9.791950788898349245e-01
-2.967946398074352565e-01,-3.426336983891078436e-01,2.252646179714023755e-01
4.734390709273128550e-01,-7.670636328021240846e-01,9.999918041608619745e-01
-3.898637569787521961e-01,-7.316325390931648354e-01,9.365055473381069806e-01
-4.257188330576300306e-01,-9.401029328170658061e-01,9.883972378344639820e-01
-8.776367409184724355e-01,9.325144829208014130e-01,-9.999999724803370071e-01
2.697693480072618222e-01,-9.250035334772568341e-01,9.999870522445373222e-01
-2.563148351555977200e-01,-9.156696670922543912e-01,9.972653980018962860e-01
-7.863064602749492149e-01,-9.873993487147680881e-01,7.638795476378876792e-01
-4.378794056872679086e-01,8.789069262041653285e-01,-9.999961779286702379e-01
4.017617760589835552e-01,-3.199870913605979972e-01,9.985337906280192799e-01
8.278000020898843569e-01,-8.260371905736607623e-01,9.999998686269448989e-01
1.885167530960023541e-01,2.132183158573375259e-01,-1.228836186867714869e-01
6.284741998939824548e-01,9.892027888789696188e-01,-9.471819718925671427e-01
8.931722453617727542e-01,-1.575325604637667354e-02,9.997742812266525725e-01
-7.181318953610364986e-01,2.380015294916304480e-01,-9.998592122983506192e-01
8.141672469355298869e-01,-9.373195455621097238e-01,9.999999505211617512e-01
-5.048474054755482943e-01,5.645419596475775847e-01,-9.999546349763238640e-01
-4.991641682121252810e-01,5.633119355802533867e-01,-9.999513879037360553e-01
2.441926708810633340e-01,3.588020301284300384e-01,-5.175933449996693581e-01
2.584626440937780600e-01,-7.874859325711092151e-01,9.999426516944531773e-01
3.764202483286540613e-01,9.951304165394774248e-01,-9.958968822513606378e-01
-9.418189182581275798e-01,-3.064633026243557268e-01,-9.965249555519600788e-01
7.891038618772090452e-01,1.087151027804709180e-01,9.977835517442326108e-01
7.621393916269549873e-01,-9.161443231408135102e-01,9.999998971187080699e-01
-7.064514998316167027e-01,5.729459612771512500e-01,-9.999944451003952572e-01
-7.411421243511011614e-01,6.295438433218243368e-01,-9.999977704562970082e-01
-2.209488658293943253e-01,6.254672525908020475e-01,-9.995783035746828027e-01
-4.170876277261150733e-01,4.514769611360738288e-01,-9.996620686156699742e-01
7.299701761875081463e-01,-6.906458913556523527e-01,9.999986467672135060e-01
1.850540832727696205e-01,2.705828424253442499e-02,6.583971365954716104e-01
-9.717621759854098151e-01,6.868529771793132621e-01,-9.999998747563020318e-01
8.316885953513644125e-01,6.938625679814289793e-01,5.974228944800432650e-01
-1.543369173338406952e-01,-4.845903304635612585e-02,-4.849142228745934591e-01
-5.073918006073849796e-01,-1.265236023868199222e-01,-9.566075514558401993e-01
-7.820760896245220195e-01,6.894761065294534585e-01,-9.999991868702837738e-01
9.122395973569479288e-01,-1.637617483672457741e-01,9.999575374271222339e-01
1.224323282124184509e-01,-3.366529111076059788e-01,9.799153274262836222e-01
7.379320638963167145e-01,-2.411211520539890962e-01,9.998880480679005478e-01
5.500530568724670832e-01,-3.015218461290829488e-01,9.995995021334519448e-01
-8.271676030398265045e-01,2.188037609131883166e-01,-9.999426647607133622e-01
-8.018889081600399926e-01,-3.175745380078032198e-03,-9.993206160979621888e-01
-2.469398406738010365e-01,4.993995704923799295e-01,-9.988532466145033650e-01
4.748767539122868975e-01,-6.154959353613653761e-01,9.999632215360033660e-01
-1.338247170180328904e-01,-5.814864065017100181e-01,9.775120880632236497e-01
6.258984843026162981e-01,9.751408389658742237e-01,-9.409428515258744241e-01
-3.709875771494803853e-01,-6.068460062552045731e-01,8.272282768512126960e-01
-4.417352643619296693e-01,-2.794292412907806167e-01,-6.704334814662070707e-01
3.104277467591007866e-01,-5.736236518247601612e-01,9.997105452401563452e-01
-8.384349432707693950e-01,9.850938094424819269e-01,-9.999999759261670729e-01
-1.969402737202294862e-01,8.862902631247118190e-01,-9.999604987380598109e-01
3.424633131320140578e-01,-2.854413177966896864e-01,9.962566433154860235e-01
7.089834344130929722e-01,4.955337285183722962e-01,7.884223477387961587e-01
9.138340844598862311e-01,-5.996678287639252147e-01,9.999994654669200900e-01
-7.519242457738606333e-01,9.361078732851335626e-01,-9.999999066746495524e-01
3.602738839570833740e-01,7.473598052000651748e-02,8.911921335919654741e-01
1.793151400663446360e-01,2.819769614651237433e-01,-4.725194819829397486e-01
-9.268427709489606148e-01,2.725033695635443731e-01,-9.999876310395002799e-01
5.105643860779829346e-02,2.878752704563369846e-01,-8.287382310914052086e-01
9.694153359329771291e-02,-6.335182246233728165e-01,9.986560236256968315e-01
1.198688332245547716e-01,-8.605852155677546911e-01,9.998896053081374191e-01
4.296629011224497585e-01,1.284634548777316976e-01,9.062261290984042761e-01
-8.203542639104173251e-01,-8.036811093842717302e-01,-8.317318141004038934e-02
5.458783785730658700e-02,8.373302242661704309e-01,-9.992030154425641797e-01
-4.218235227356734729e-01,-9.818888145402955292e-01,9.926363119366853338e-01
-8.819748578547024209e-01,1.213549929410784323e-02,-9.997382412497227699e-01
-5.344545860907587986e-01,3.318824196682923500e-01,-9.996544577594629333e-01
9.151309213217810878e-01,7.959916952769523490e-01,5.339799528458126776e-01
-4.545838814535041461e-01,5.329704304194837761e-02,-9.876224393977370841e-01
5.737023436837151991e-01,7.463525967247373050e-01,-6.979290172827588012e-01
-6.674508162813508338e-01,3.010503468821217332e-01,-9.998755898336705306e-01
-1.315692747080865477e-01,-1.609847775460739872e-01,1.460260940085792158e-01
1.375357015116176473e-01,7.262305881006581032e-01,-9.944644993926027299e-01
1.672134300822412101e-01,-3.729581186669905790e-02,7.709015899921052295e-01
7.986907720090554719e-01,3.560644697197929975e-01,9.763644653655940697e-01
-7.927696190563875422e-01,-6.435311961228959987e-01,-6.328717254020659322e-01
-9.731140326355252057e-01,3.862623970890661784e-01,-9.999975034939033725e-01
-2.225955019052312522e-01,-1.638046654265921109e-01,-2.857701673425966371e-01
9.335310294163610134e-01,-6.713559868334972869e-02,9.999098074923152835e-01
5.282333598093846838e-01,7.954443200571252870e-01,-8.707213948156006245e-01
-4.836421251344984462e-01,4.571077481601415471e-01,-9.998358013618904305e-01
-3.700298896955733774e-01,9.355621364992046107e-01,-9.999957252084575865e-01
1.188827347108181165e-01,-6.195971850181982710e-01,9.987595393042081326e-01
9.906422457680652549e-01,8.344973612073838254e-01,6.531223091995560504e-01
-1.334106376345256528e-02,-8.713305203234258389e-01,9.996243809947416015e-01
-9.747500710580860872e-01,8.201301387458008740e-01,-9.999999679399437236e-01
8.570325134096485886e-01,-9.459060272862216401e-01,9.999999704220959851e-01
-7.389346500655002981e-01,-4.860700797949111251e-01,-8.522515002098993708e-01
1.932342792754628835e-01,-7.229895620762920583e-01,9.997901664908406261e-01
-4.135830334345991233e-01,-5.120509044848884361e-01,4.560711753609640873e-01
-5.159034080461992744e-01,3.858760016650424340e-01,-9.997575628708564865e-01
-2.432185727276972020e-01,-6.263168523103719298e-01,9.575442134283778106e-01
-7.857729549365282118e-01,-2.741486031124398259e-01,-9.880745073674310763e-01
-4.218873103887310627e-01,8.389863592981439133e-02,-9.873620527614251907e-01
-7.345841060116595767e-01,7.929238297018019743e-01,-9.999995353272344012e-01
1.919576962813085430e-02,-1.195921685558767322e-01,6.005069654590952100e-01
6.742425943036918223e-01,1.265369644389742199e-01,9.916715841957239874e-01
2.590706495126935405e-01,-8.422796895952044949e-02,9.374393629339901057e-01
7.926401771269107055e-01,1.377024247032896387e-01,9.971420775289892013e-01
-5.051429371240159227e-01,-8.624997433063257279e-01,9.454201277387436209e-01
-6.744586551813052111e-01,-5.818264324385655772e-01,-4.326570997063742818e-01
8.055416928941958599e-01,-3.437186857096656833e-01,9.999795896168921505e-01
7.714683964184456677e-01,-6.347502966522513557e-01,9.999984372141553779e-01
-6.887403154568150221e-01,-9.675873095363967114e-01,8.840991438729128848e-01
-6.461105906649911024e-01,-9.522506245615229847e-01,9.105443354956416213e-01
-9.262485889805385231e-01,3.949405216152772624e-01,-9.999963425550452145e-01
-5.711333098915236661e-01,9.653938294886070803e-01,-9.999995754026060890e-01
-2.185893351162770948e-01,7.027024193884900960e-02,-8.945595945537740956e-01
4.536467189382415999e-01,1.074948122938261807e-01,9.391456265243210977e-01
-4.290659111132062442e-01,-7.784061574670353423e-01,9.409989306279279431e-01
2.720579822113482482e-01,-8.175777985508430046e-01,9.999629495163555593e-01
-8.344991094255109765e-01,3.089519642505798025e-01,-9.999783688114821656e-01
-2.898117136814273298e-01,-1.322480551580804686e-01,-6.571713281377618010e-01
6.161577452879720695e-01,-7.737804519092044142e-01,9.999981609027117635e-01
6.774747686407978087e-02,7.527075204678324027e-03,2.923207769183636118e-01
1.480751913036684186e-01,5.323368829269086167e-01,-9.580249806059184525e-01
-9.205905890963161919e-01,-4.646064675186112325e-01,-9.792892707077757164e-01
-5.055251509507441288e-01,-1.827960199616334158e-01,-9.236969582746282770e-01
-9.409476947655048829e-01,4.681606979472103802e-01,-9.999984817276869054e-01
9.770435834836326272e-01,4.478992039469451569e-01,9.899814656892573783e-01
8.546189124314964580e-01,1.734302958122440064e-01,9.978011900469340167e-01
7.340942761004543016e-01,-1.173820229676951765e-01,9.995991071112383386e-01
2.246345743739541767e-01,-6.549818395268611759e-01,9.996974210308068320e-01
-8.713585311039788728e-01,2.476291340375080807e-01,-9.999723737260702849e-01
9.840950224840432359e-01,-5.454526679925719712e-02,9.999383036978075623e-01
-8.088596803347918307e-01,6.247651503344340274e-01,-9.999988118364999679e-01
1.393927119436111361e-02,2.795895843164843964e-01,-8.688213559839508271e-01
-1.179405797816672763e-01,-3.640275003582209568e-01,8.427053404528973557e-01
5.048882212485634735e-01,3.760978180450103014e-01,5.675844271471022218e-01
-2.677589416656205312e-01,-3.449425840432427393e-01,3.678360302541334170e-01
-7.401248729123925951e-01,-8.367211178275619776e-01,4.486279944237094863e-01
-6.409329802315189006e-02,6.563261094020111930e-01,-9.985141823892194068e-01
-3.639226437961644578e-01,3.465597855812452277e-01,-9.983590794936199053e-01
-3.225208527316714147e-02,-1.818060344937384443e-01,6.338165293374462550e-01
-8.986507342797058762e-01,-8.526890502188821941e-02,-9.994132809744988855e-01
-8.132904497075881256e-01,2.879132295133168817e-01,-9.999669968027024014e-01
5.338492842838313823e-01,-5.857178366656072832e-01,9.999725333430191654e-01
-2.347412993654589553e-01,-6.062117893350913445e-01,9.524335840205306880e-01
7.666136961970226871e-02,5.267720979025645178e-01,-9.780501656925143505e-01
-6.248360824285257298e-01,3.394269790669750542e-01,-9.998702042289049352e-01
-6.298302196448806178e-01,-5.886798575408014322e-02,-9.933940439379372878e-01
-8.228922585764306685e-01,3.546961956729979271e-01,-9.999846246510660785e-01
-8.764073113565062911e-01,4.641858777332674713e-02,-9.998035711011428184e-01
-6.650556432651555383e-01,1.743120894736227555e-02,-9.978295205054564798e-01
-9.583501053999068375e-01,2.146925786547111414e-01,-9.999839095994869087e-01
-1.883573364833994734e-01,5.700395138495246705e-01,-9.989834388126708209e-01
3.529724469143835641e-01,7.914862629866765698e-01,-9.753844062655794289e-01
3.981967857718293757e-01,8.774329592871983330e-01,-9.835507139935520948e-01
-6.744615290051021450e-01,-1.530191192557579516e-01,-9.891836862357871185e-01
3.813082345829690301e-01,3.688192978390463228e-01,6.236364579468817865e-02
-5.858550062108467404e-01,8.724439115443525239e-01,-9.999990716364841603e-01
-5.478128163348956470e-01,-6.829432255977609945e-01,5.886854992128865982e-01
3.024811595039313961e-01,-7.194796579581741458e-01,9.999271055054205215e-01
6.162667981567302444e-01,4.579630471674269732e-01,6.592685467594202597e-01
-1.996116510739891492e-01,6.017993160009440512e-01,-9.993386935422499118e-01
3.111891651028164674e-01,-1.132626419644959803e-01,9.717203171192807520e-01
1.957156630723833057e-01,-1.901009249329970174e-01,9.586592141433227798e-01
-8.439360217364000327e-02,-7.520651628573415959e-01,9.974833523041214400e-01
3.877282733559972439e-01,7.725599652845960286e-02,9.141742696088608344e-01
7.652235221394330100e-01,-2.584452195850772682e-02,9.992666591798697873e-01
1.529523601892890383e-02,-4.969073463690261150e-01,9.881428575937781789e-01
2.084380854645044856e-01,-3.909955063320076363e-01,9.950267337786027344e-01
1.155750654521714438e-01,-8.984826164029273698e-01,9.999211110257525403e-01
2.319286440516623582e-01,1.836437303032254498e-01,2.368408620259104258e-01
2.404002568447372035e-01,-7.954677806141998708e-01,9.999365694473630883e-01
-6.384026003391047865e-01,-6.244869055122099777e-01,-6.946641086662846964e-02
4.198751927568216136e-01,-3.804980363927223941e-02,9.796833203216150920e-01
-4.495806902167238661e-01,1.167168745844435751e-01,-9.930796893790857505e-01
7.406854779854166182e-01,5.455612940905052444e-01,7.511639771699207824e-01
-8.822464371819886964e-01,1.276212727333072561e-01,-9.999177355131310119e-01
6.968013512404191978e-02,-2.136615472466567578e-01,8.889102397607991923e-01
-5.587267839999943142e-02,8.332388200794662581e-01,-9.997248255783778292e-01
-9.922397748371019066e-01,6.706403804061427110e-01,-9.999998799856396614e-01
3.081821012652141700e-01,-6.564674464402717735e-01,9.998707048711515943e-01
8.177338704506367240e-01,5.044693990976989451e-01,9.164388048004922238e-01
2.172678392327969110e-01,-8.873221987469279703e-01,9.999680956805544474e-01
1.760608218366117583e-01,-3.903180954662102131e-01,9.930852974790694843e-01
3.231802673112249558e-02,-5.630247164086206180e-01,9.948196041624909336e-01
-4.449265272330571452e-01,1.329868697485472318e-01,-9.938362715224964283e-01
-9.040903257341956767e-01,-2.198800201939306032e-01,-9.978665676416140773e-01
5.942172620521750659e-01,-3.006033666894651901e-01,9.997400936199417609e-01
9.420245217459166653e-01,8.402912049889710300e-01,4.689056148543560010e-01
1.462486818159367541e-01,-3.731606964978428920e-03,6.350901515388241991e-01
-5.530134085623736873e-01,-8.092253097605754952e-01,8.567669474211734304e-01
-2.609043329055498184e-01,-9.548753072697222510e-01,9.980647729967180304e-01
8.448174753557244898e-01,3.299960411783531278e-01,9.884475774488302724e-01
3.854265257369278164e-01,-3.499659137228390282e-01,9.987206678369083823e-01
-6.154581833944792191e-01,-2.148930826776822567e-01,-9.642266614344416897e-01
-4.287917336778075406e-01,7.105814673447745644e-01,-9.999774684970177407e-01
8.191577390330424535e-01,-4.923929508627546969e-01,9.999959724879587952e-01
3.821807269254100525e-01,7.035978900577206652e-01,-9.227282233252858124e-01
-1.343413138982383348e-01,-2.354877545371005798e-01,4.666132762306096082e-01
7.696808057625528221e-01,-3.604113426330244341e-01,9.999752772494867603e-01
-1.886417159430280321e-01,7.308471646792482623e-01,-9.997969063139323653e-01
1.429290984119790942e-02,-9.020599183650586106e-01,9.997904369456607210e-01
8.544852703853655917e-02,-8.749806213962112444e-01,9.998651316904203501e-01
2.667686530291495384e-01,9.615479746125135119e-01,-9.980803383396461559e-01
-6.436065898416978293e-01,-7.828788433811708636e-01,6.020530494904002827e-01
-5.581396276442069926e-01,3.925045780124813977e-01,-9.998512687012931499e-01
9.482574507183523238e-01,8.600467189393530276e-01,4.145174374186731958e-01
8.193258579868694103e-01,-2.133402990564519097e-01,9.999345056800608145e-01
-4.333008678012957304e-01,-7.142873775280178528e-01,8.864131863300753755e-01
-3.545356965192862919e-01,1.987623322921130420e-01,-9.921227742335833044e-01
5.684964854021254954e-01,7.737493066191998281e-01,-7.724056626610784626e-01
-4.840727766374781638e-01,4.690657602334249443e-01,-9.998549324010577166e-01
-6.846383909719180316e-01,-3.242239509888407145e-01,-9.470201859920599485e-01
8.947379486689956973e-01,3.202525970235614583e-01,9.936219982274646645e-01
9.069262806560074441e-01,-7.324464609124550218e-01,9.999998481815307594e-01
-5.471577963076106332e-01,5.650742519397256025e-02,-9.952323021864307728e-01
-4.885704493263876014e-01,1.741897616607286370e-01,-9.973568328080706369e-01
8.461007736273895574e-01,-8.172775114889643255e-01,9.999998805819805270e-01
2.105852582654934579e-01,-4.165974761735089515e-01,9.962295735089704563e-01
3.278508760943481537e-01,1.492679468631334938e-01,7.128303479765902839e-01
1.809866149742063168e-01,5.484068993888064902e-01,-9.505161446440851813e-01
-4.820429209710854757e-01,-3.846617808139414230e-01,-4.517570775550898143e-01
5.370567430793944386e-01,-7.147369756916341910e-01,9.999926792199212988e-01
-8.135490415621806637e-01,4.698075011700120207e-01,-9.999946607262515386e-01
-9.712890160943790097e-01,5.836031316375076550e-01,-9.999996466385878691e-01
-3.029187270993545233e-01,-7.723550186739571721e-01,9.818724219344661108e-01
-8.613804395595809904e-01,9.122988564266940603e-01,-9.999999603686672289e-01
2.566817108533190339e-01,9.753708308311839215e-01,-9.984882693677126220e-01
-1.715285307342195864e-01,-7.247787075766731757e-01,9.921190187808137662e-01
6.806915605530294844e-01,7.525364646176908590e-01,-3.445307877159412002e-01
7.881527138984270042e-01,-4.589742298245669261e-01,9.999923294795678430e-01
-9.773536919560630309e-01,-2.063580649743352868e-01,-9.991037196738059567e-01
2.319259146167684804e-01,-7.589015660687550291e-01,9.999004825334775193e-01
-4.936063436708757468e-01,-8.147364135303838406e-01,9.225146696033192928e-01
-6.392611817147422215e-01,-5.962798184691167069e-01,-2.116583294103549506e-01
-2.834544037773496505e-01,-7.850549117181195857e-01,9.868254320037859184e-01
-4.459409178510584937e-01,-3.854805292557705876e-02,-9.665481718414665746e-01
-3.117799601582535995e-01,9.754367773219017046e-01,-9.999948629047401560e-01
-4.189458259995182399e-01,3.459007078662637014e-01,-9.990469038998031071e-01
9.954052271457884959e-01,3.453170764247981417e-02,9.998657296364001912e-01
-1.470146612227851701e-01,-5.889722521598741434e-01,9.762077687449743912e-01
-8.843164131233405278e-01,7.319397675038912254e-01,-9.999998086984238643e-01
-3.901837205284441890e-01,3.274881466507975070e-01,-9.984728245649349132e-01
-2.000823000566476217e-02,-8.366046514307368120e-02,3.079338217425841018e-01
-2.092714053050885870e-01,-2.437547614834110199e-01,1.707283459831765160e-01
3.063409670787640149e-01,-1.540501676666001796e-01,9.801733238801129122e-01
-8.078814864489451963e-01,9.749913911378895737e-01,-9.999999638497369947e-01
-3.443249173887492631e-01,-5.963792594367680611e-01,8.511390001120442417e-01
9.836508941778694393e-01,-2.270910732854005687e-01,9.999889632286765861e-01
-5.892463388409066027e-01,5.603361852054160597e-01,-9.999796552615498602e-01
8.097570891986032304e-01,5.517800409982995813e-01,8.590964796866298325e-01
5.293321347710993052e-01,9.064255584727010095e-01,-9.549758557256400326e-01
5.083759698818424155e-01,6.617410370959446730e-01,-6.450796467201616036e-01
7.081045988567464811e-01,-8.108261516810082448e-01,9.999994937122117511e-01
2.260820702319479292e-01,9.104572059761177893e-01,-9.978700775440565440e-01
9.888918649511606596e-01,4.933071741245496078e-01,9.860142617014839850e-01
4.257447101273870160e-01,-5.082315149739566884e-01,9.998242947929031343e-01
-3.657624010157118910e-01,2.050775521459651252e-01,-9.933859879155919614e-01
9.336157291433559990e-01,-2.115704352355405327e-01,9.999787408909409647e-01
-5.005134698168367535e-01,9.999953434014763332e-01,-9.999993913005810198e-01
-7.272183710621669128e-01,9.627369147972619778e-01,-9.999999084523031323e-01
7.464998648594900477e-01,7.956971389600198119e-01,-2.411420989476399934e-01
9.546576133218007687e-01,2.359417840973134783e-01,9.984886727805830642e-01
8.594894771163088532e-01,-6.146272811735942199e-02,9.997998562998440253e-01
8.187669219968098933e-01,-8.292263933386399000e-01,9.999998607209054091e-01
1.915102675903019858e-01,7.358183105440654348e-01,-9.913849969461089318e-01
-3.970295216001551442e-01,7.676205239309765727e-01,-9.999825009160536737e-01
8.622577974122387356e-01,8.875596381944172997e-02,9.991258934720130824e-01
-5.445546545110366843e-01,-9.878288543427262702e-01,9.765153120672529496e-01
3.141547807183258101e-01,6.871518036588608602e-01,-9.531373022313963661e-01
-7.446176488436158092e-01,-4.142216038602044570e-01,-9.291288556380749020e-01
-6.811254015342995682e-01,-1.690764547681040675e-01,-9.881247350461702661e-01
-8.484640353861132578e-01,4.600897088964066572e-01,-9.999958499589710614e-01
-5.089532565701859745e-02,-8.584829903496002945e-01,9.993782922112292022e-01
6.335320082898485694e-01,9.917002885137427004e-01,-9.458492938787943505e-01
-3.796199562358886226e-01,3.367251721247417340e-01,-9.984524437122316298e-01
-9.698077050824220890e-01,2.312160149044497626e-01,-9.999878368066018597e-01
-1.157995518688128556e-01,7.112217076590772180e-01,-9.994880693609990985e-01
3.591856310471699398e-01,-3.394435925112246899e-01,9.981527719148410860e-01
8.680252369664409606e-02,9.026026310187373891e-01,-9.994272952737545124e-01
2.039877810800705404e-01,-3.184028454979981326e-02,8.271803430903964527e-01
8.649500055123473530e-01,6.174058183648574172e-01,8.448043418387870540e-01
5.806347150557800152e-01,-6.835514309781478559e-01,9.999935324779500867e-01
5.328439472882551264e-01,-9.541620133037986839e-01,9.999993033012810617e-01
1.594691480590890720e-01,-5.109358369804632982e-01,9.975511282139176705e-01
-9.546900341929562828e-01,-6.547161157657912511e-01,-9.051246852962044898e-01
-2.728607317249605035e-01,9.877599639399925469e-01,-9.999932977222538710e-01
-8.223841111507601553e-02,-8.801733915024265720e-01,9.993153104449279400e-01
-3.382746232982234424e-01,2.340681629678493803e-01,-9.934843209162622646e-01
-1.448899528047513652e-01,-1.229168535446891752e-01,-1.094255790130163331e-01
6.980211047925528600e-01,1.364530079083987602e-01,9.927457480649212185e-01
-4.848087965641834085e-01,6.024525757911716184e-01,-9.999620592761008231e-01
-3.070542975422907439e-01,-2.803355434993242135e-01,-1.328046407716279020e-01
-8.007327986967460731e-04,-1.612658773242414689e-01,6.653349702858269987e-01
-6.539723639826506840e-01,5.275671305248534892e-01,-9.999852202883838803e-01
4.968825367884099897e-02,7.990474330048062956e-01,-9.988873392921504557e-01
1.802179329702322530e-01,-4.452182458042290847e-01,9.961632699116780287e-01
-9.833126058479457754e-01,2.987485969982590639e-01,-9.999945911148171440e-01
-6.517187316189461121e-01,3.485762709839446138e-01,-9.999094717055839743e-01
-5.803886767205144182e-01,-3.757535122902111446e-01,-7.711569065501411302e-01
6.396670639582511253e-01,2.432962202505504212e-01,9.627228857820755437e-01
8.048807341087682587e-01,-9.898989095276644612e-01,9.999999679076858605e-01
8.510215567452508179e-01,4.247462465525786435e-02,9.993842257106021476e-01
1.952927802970778615e-01,-7.879866459785223043e-03,7.681762346488640869e-01
7.711732455597184455e-01,1.867455225972738386e-01,9.942238753093545212e-01
-6.003339028320819892e-01,-2.216848934108126556e-01,-9.556554163738135710e-01
4.391796268730641106e-01,-4.889458811887725798e-01,9.998137090855357956e-01
-6.081507771261016604e-01,-6.900501549547892743e-01,3.880454108621502751e-01
-3.836469245591846988e-01,-9.166765686781390698e-01,9.903614076907860664e-01
3.664883122807485183e-01,9.856277391092875817e-01,-9.959144215867864469e-01
-2.256913845830439413e-01,-9.672233818251287918e-01,9.987968047715675146e-01
9.170262560072621749e-01,-2.210467586046813704e-01,9.999771736361043883e-01
9.698065990306976580e-01,5.329386671821609855e-01,9.749810197070996054e-01
-4.332186797761481412e-01,7.822180335964381559e-01,-9.999894693996324024e-01
-6.124232823747814969e-01,-8.438596042297730193e-01,8.201192581830860640e-01
-2.037235108736841216e-01,-2.700268193562616048e-02,-7.082203018830723895e-01
6.291838779557699102e-01,2.265763396250330963e-01,9.649372192288654393e-01
-6.939069550902092764e-01,-3.647211666395868690e-01,-9.282968591973970174e-01
-9.667781655168408150e-01,-4.842619713528573122e-01,-9.840772756250631970e-01
-9.409415986000977394e-01,3.128576035452548254e-01,-9.999928245740240529e-01
-4.507380537497662765e-02,3.062076266078062048e-01,-9.421003690279752263e-01
2.491082580010997027e-01,4.041845848152934018e-01,-6.500478882608238251e-01
8.828331714565607058e-01,1.035425119567177088e-01,9.991750369669426535e-01
-6.218618362490107021e-01,-2.790093509116144954e-01,-9.371684235405838281e-01
7.289739960507062300e-01,3.547347763897770179e-01,9.537024362923707255e-01
-8.776172286951466894e-01,3.651564137002600852e-01,-9.999919881851483394e-01
-2.160466618955416696e-01,-5.294284397809330134e-01,9.165326816208234639e-01
1.071146952733266211e-01,-5.301068188994213504e-01,9.965890856108103879e-01
-9.329918012394706750e-01,9.903779440576634396e-01,-9.999999911296384436e-01
6.946428000412283588e-01,1.960345463514070463e-01,9.864279737663873560e-01
9.890473595842543819e-01,-9.924719554902083907e-01,9.999999950409218519e-01
9.297448814082340807e-01,-3.553406819143092310e-01,9.999947522496426267e-01
7.055687453946675181e-01,6.649174821299368432e-01,2.005027590675688143e-01
7.083268997232261555e-02,1.983721841022785259e-01,-5.633297480343270047e-01
-2.604014752475933836e-01,6.431944111865290914e-01,-9.997619264093469127e-01
7.094016947683257079e-01,-8.650914487348617676e-01,9.999997095354792309e-01
-9.070616237363049450e-03,-6.222851053126836618e-01,9.956655791332476024e-01
3.252738868608548994e-01,-6.869360296545377054e-01,9.999196398511296380e-01
8.379823846036880131e-01,-8.604981314896602562e-01,9.999999159335284382e-01
-8.330905745191923284e-01,8.638851514580605517e-01,-9.999999146589385601e-01
9.911826525809108723e-02,3.233636172528686625e-01,-8.079952009688298187e-01
3.592004528385612794e-01,3.422989651086436602e-01,8.430684149635168934e-02
6.008712739854185081e-01,-7.288698247026417221e-01,9.999966423374144764e-01
-8.992904269332142597e-01,-1.334012879260275675e-01,-9.990567846442871547e-01
-3.182294006111243689e-01,4.507743737904856829e-03,-9.237028392192514481e-01
-4.589081869994737772e-02,-9.784326330050416853e-01,9.998217565219646996e-01
3.183115348304408343e-01,9.341592833762759618e-01,-9.957779882313292363e-01
5.011421211338502602e-01,4.235456613075851973e-01,3.696194829771440316e-01
4.875361506981270576e-01,-9.509376757685825687e-01,9.999988680759228643e-01
-9.779134186989126842e-01,1.959637932439597385e-01,-9.999840433185576138e-01
7.477750512043148667e-01,-1.440523425530995105e-01,9.997321974672799261e-01
5.101092364684058911e-01,4.022807027464918583e-01,4.923387244042027877e-01
-3.309075967791654804e-01,4.301610706411300722e-01,-9.990102265732064835e-01
-3.873173340244417950e-01,8.755366489847367095e-01,-9.999934457438579560e-01
-6.772495285083779404e-01,4.511457998587675711e-02,-9.985427771051192947e-01
1.018757378820100978e-01,1.963194046401881554e-01,-4.399899436291631605e-01
-8.459930817359291311e-01,-7.862627114971263431e-01,-2.900783876764363445e-01
6.048900268809678238e-01,-4.079407779860819705e-01,9.999201372323208714e-01
7.371636805194896613e-01,6.435376288814935730e-01,4.366873612901164825e-01
-4.504275018783736595e-01,2.597750296556693428e-01,-9.983544839429340234e-01
-5.372003432972531911e-01,9.816667356397184019e-01,-9.999994933897476956e-01
-1.538752497799313890e-01,-2.265391369759952589e-01,3.481345265048906845e-01
3.344051582262810296e-01,8.374970919468327502e-01,-9.870191970924828695e-01
7.242339032744462557e-01,4.968209274936576936e-01,8.134233860200874577e-01
8.507893231811194390e-01,8.424213501383519542e-01,4.181546769967903199e-02
5.266397815118462056e-02,-2.781496971974373178e-01,9.294137936170174807e-01
7.229768764935875502e-01,8.368041839567397222e-01,-5.147248647027671264e-01
8.363275414747943781e-01,-7.911867011809492478e-01,9.999998290671985313e-01
3.120634002129525353e-01,-5.523049377788147307e-01,9.996475889896139222e-01
-2.457752246070363800e-01,-9.654679714987255412e-01,9.985033543245824816e-01
-6.728780445659252596e-01,-3.967352947949573938e-01,-8.811109937026710970e-01
5.850633460973153621e-01,5.949964690314633042e-01,-4.962481864089966083e-02
-5.438982728624059959e-01,-3.137734745372611211e-01,-8.179606873815308266e-01
-2.287859684227144808e-01,3.441460112509220348e-01,-9.935224740237568186e-01
3.217958939947274111e-01,-4.351567295980312000e-01,9.989686584609764886e-01
-6.248100154966911290e-01,5.527995710266624396e-01,-9.999846278998586468e-01
5.465732280644619578e-01,4.736723842377388305e-01,3.491752869628559353e-01
-4.052912686610388171e-01,-4.166300636908726318e-01,5.663331108888456505e-02
-5.720655929594660183e-01,8.778399690625569018e-01,-9.999989903521431245e-01
-2.974780489446278153e-01,-5.107916839208741511e-01,7.881647701007938878e-01
4.114905054422934860e-01,7.503212514456296667e-01,-9.346742188710687183e-01
4.887209814452231349e-02,-8.676025461904193214e-01,9.997906920451368196e-01
8.920921912834760548e-01,7.500849556681938868e-01,6.106995186396975139e-01
3.993795301826046362e-01,-5.823279216973875627e-01,9.998909802881671416e-01
-6.809114985819626487e-01,-1.224659813327588775e-01,-9.925165154909822984e-01
-9.934863487439304919e-01,9.341330249934574059e-01,-9.999999914986984484e-01
-6.100432270183251404e-01,-6.919900797441953522e-01,3.882470231034579333e-01
6.225533749799281313e-01,8.767323588283504332e-01,-8.540400174799281929e-01
8.329097725089351645e-01,-9.840945910013179088e-01,9.999999743031254829e-01
-6.314140163791130966e-01,7.745915622633305908e-01,-9.999984338800844696e-01
-9.213959846899570927e-01,-8.031295649923857471e-01,-5.308529905830794426e-01
2.436314625461881711e-01,4.288261762136045263e-01,-7.287111141788393809e-01
-4.140498630839535288e-01,-3.826992127328427973e-01,-1.554818546010080793e-01
-7.641997699820963774e-01,3.678176753876185590e-01,-9.999757486773275250e-01
-6.572311252112623681e-01,-3.559926667231616548e-02,-9.960147928922515881e-01
6.340237638738486226e-01,5.553929548343492506e-01,3.740761136004810417e-01
6.409041952202887416e-02,-8.080319677974092674e-01,9.996738782456776606e-01
6.683104959732064643e-01,4.262133623361623602e-01,8.368251145292566751e-01
-4.943404282509189507e-01,1.921876111992402159e-01,-9.979153953537976962e-01
4.303003399654405925e-01,-6.797397122968302785e-01,9.999697879119835431e-01
9.627036906156605234e-02,-1.234629667047184576e-01,8.000195796068229059e-01
9.174838931708857448e-01,-2.274308116887668874e-03,9.997974524959845066e-01
-6.214020154362867032e-01,5.750045012398730115e-02,-9.977504001163018943e-01
8.097736895632214882e-01,3.619775120558312853e-01,9.775419719067330870e-01
8.686628160414391342e-01,7.047265929476700386e-01,6.748962747893405556e-01
-6.605049628371273407e-02,9.963741393759759646e-01,-9.999513628781667718e-01
2.366905285947051851e-02,-9.325569315403523518e-01,9.998593425413595526e-01
1.943667195760034883e-01,-5.249096652554718911e-01,9.984971145614141008e-01
5.269955815769113983e-01,-7.651309248524154061e-01,9.999951090320496894e-01
-6.214289512145803052e-01,2.747100937534552312e-01,-9.997434973414460746e-01
-5.927979558592226805e-01,1.969107401649541345e-01,-9.992566261936661753e-01
3.669048759330695297e-02,2.389970033162902574e-02,6.386688593150356696e-02
6.962659720102519767e-01,-7.096613584633055805e-01,9.999984326541456747e-01
-8.494804831541418189e-01,-1.712835957062290859e-01,-9.977344893463279130e-01
3.318183116965971458e-01,-2.602144248116071701e-01,9.946457300207534047e-01
-4.212206641943720964e-01,-4.599244545281300223e-01,1.911388638536740958e-01
4.746651204900926846e-01,-5.244068334002818244e-01,9.999083577529722655e-01
-4.357502541481110825e-01,7.686395949562723207e-01,-9.999882394187511458e-01
6.517101174477548664e-01,-2.082184184665816229e-01,9.996315930539149130e-01
2.167777399629979840e-01,2.436115410645884882e-01,-1.333696873696684770e-01
-3.916810146962963479e-01,8.451655638666923931e-01,-9.999914989668567955e-01
-3.733195592260079021e-01,3.365869574942819131e-01,-9.983496097805819591e-01
-3.814389972929803641e-01,-7.486806777894470244e-01,9.504298780310126427e-01
9.786268120909131785e-01,2.694571466893684875e-01,9.983374140909048178e-01
4.549241605357503548e-01,6.606693695739411787e-01,-7.733968960792206859e-01
-2.688930582004576131e-01,-6.083920201766919167e-01,9.350951621611268694e-01
-5.813564082196645000e-01,-5.768265469376963051e-01,-2.264543424033586480e-02
6.824261354921650202e-01,-5.063703960957040007e-01,9.999862548566604836e-01
-3.537393685885590333e-01,8.232627947904247456e-01,-9.999845342427270412e-01
7.355032167140422850e-01,-2.067036146780221184e-01,9.998381761319676819e-01
-9.539044557208327113e-01,-4.135482716871208275e-01,-9.910392834664381034e-01
3.070062839290954582e-01,4.346228722884084572e-01,-5.635928364692770476e-01
1.591995710004157072e-01,3.425115392225186461e-01,-7.242659009741607701e-01
-2.461956452691460573e-01,3.732241442835770862e-02,-8.890951486034682771e-01
-7.296213044566699502e-01,8.329970739912662125e-02,-9.994105718306388608e-01
6.735351539106657626e-01,5.467490741248104413e-02,9.959030229167861181e-01
-5.215117641519515512e-01,8.348910675600518250e-01,-9.999974281431815992e-01
7.841862598682463048e-01,-9.548870846158019621e-01,9.999999439816371627e-01
-8.648835232841185494e-01,9.530646231354147346e-01,-9.999999745445073973e-01
9.016452097770641938e-01,-3.023608644598128059e-01,9.999881941981453304e-01
3.721304781076031354e-01,-2.011058454289675890e-01,9.935420944491880624e-01
-7.477515983825244739e-02,-8.320192126165044666e-01,9.989716581726748590e-01
-3.823971990989858405e-01,4.258643353603250858e-01,-9.993824663385895146e-01
9.748328723914025939e-01,2.320516149823534935e-01,9.988117334367598854e-01
3.519240892299806411e-01,-4.143395355007257752e-01,9.990603085890906732e-01
3.712988038517264222e-01,-5.980794886895737239e-01,9.998766762329717173e-01
-4.669537238288146153e-01,-7.738128412890850072e-01,9.111568170332217109e-01
8.673836514414579035e-02,-4.091262204429590987e-02,5.637101875536596474e-01
-2.792390805187627834e-02,-1.676398986932170487e-02,-5.574175051805635439e-02
5.936283166984019921e-01,8.206820106662933156e-01,-8.128146958863712301e-01
8.421743801043897193e-01,9.786602088906930508e-01,-5.930963246045755088e-01
9.717564150805071410e-01,7.581103255192622736e-01,7.887936084777251722e-01
-4.369014023795774193e-01,-5.704786920277158391e-01,5.835878726381782400e-01
7.751459187130211870e-01,9.502004183068299970e-01,-7.040430573986807827e-01
5.060169777557206316e-01,-5.865851072898364826e-02,9.929669192646364273e-01
-4.670549203229257262e-01,-6.281401291020598521e-01,6.670593080014525222e-01
-8.945834474177074558e-01,1.115172842473837189e-01,-9.999145776556692677e-01
4.058919319725680097e-01,3.743343936424436968e-01,1.564911246304448167e-01
-3.355021103284410167e-01,7.952943689882523426e-01,-9.999754507655448377e-01
6.568488602085005290e-01,4.213853385398469431e-01,8.266039095114148250e-01
-4.599392360802467827e-02,5.997572093097591761e-02,-4.852650626977972337e-01
-8.154658103762217891e-01,8.841188800851540464e-01,-9.999999168566628960e-01
8.358871768503399746e-01,2.966728397653020100e-01,9.909368457304410516e-01
-7.647272764049501959e-01,-1.509308832994691318e-01,-9.956906738732147488e-01
-5.436128088885192611e-01,3.715244403737023582e-01,-9.997878742673494967e-01
-4.103967552786866868e-01,-2.230136797750408295e-01,-7.338018116596114471e-01
-2.318535387185716168e-02,-1.883713600355942930e-01,6.782845692518989500e-01
1.654491434982063858e-01,-8.108192830382285887e-01,9.998848868088785480e-01
-4.747931371883740148e-01,2.923323863544697865e-01,-9.990683692183384146e-01
6.486948209495910778e-01,3.867652402121537492e-01,8.641862955009325109e-01
-8.894283269479057452e-01,-5.304528227380236327e-01,-9.462729565979833835e-01
8.107973809951003474e-01,-6.701523518331695684e-01,9.999992598037755753e-01
7.482910960937982914e-02,-9.442390145788626121e-02,6.891132086608136031e-01
5.129056047520048622e-01,-3.226924630393381843e-01,9.995301365590623099e-01
-3.223935737986849404e-02,-6.845540306539088515e-01,9.970662315247890151e-01
5.329752345895972798e-01,4.674371998388548999e-01,3.164437707822825296e-01
4.810204677227407633e-01,-5.319800523129183389e-01,9.999202726512028683e-01
-8.848382280051594329e-01,2.108867680849262349e-01,-9.999651382462712013e-01
4.361940986700985068e-01,-4.962276882269440748e-01,9.998215424715938271e-01
-4.174862037765649792e-01,-1.056446884204036429e-01,-9.152919863194215466e-01
9.683240238716450676e-01,-1.628975966689054644e-01,9.999755549116441378e-01
4.536264480793685827e-01,3.813562467886166818e-01,3.464034819968381806e-01
1.581192472230141810e-01,-7.448230523211361032e-01,9.997603654825578667e-01
7.341133601192351144e-01,-1.258233701050985864e-01,9.996316232355252351e-01
8.497189197974650554e-01,5.432839747255167051e-01,9.107960122894716015e-01
6.206540658573889147e-01,-7.081421381362369427e-01,9.999966104607292960e-01
-4.407368045239221654e-01,-3.778722475218376786e-02,-9.650548517063267662e-01
-2.938930063112819013e-01,-2.871462772042236988e-01,-3.372085552366903966e-02
4.561009969286511367e-01,4.406296302282752819e-02,9.680422660726020201e-01
-7.595474522159448849e-01,9.872381393853870701e-01,-9.999999481395179801e-01
8.228495294168456375e-01,3.106310090554396108e-01,9.881447360303216021e-01
8.380154215726940414e-01,1.588464101670350459e-01,9.977563816294418020e-01
-7.931427893258438111e-01,4.154812776314664724e-01,-9.999887269893316111e-01
1.948500052611683575e-01,9.096506817904690401e-01,-9.984283758528701425e-01
-1.642321188119306719e-01,-2.079611267639001060e-01,2.152262436906940968e-01
5.707095883272281789e-01,5.540090866832847460e-02,9.885034064192921299e-01
-7.731316004369870321e-01,6.775956096344608603e-01,-9.999989986139031783e-01
-8.457976703949301456e-01,3.356617870553266769e-01,-9.999852084544900155e-01
-5.609522410903813316e-01,-5.466009170198946610e-01,-7.163371490298486854e-02
5.398358064027768410e-01,-9.484827347759663407e-01,9.999993123862558342e-01
-1.499801231117154909e-01,-7.299079104065298029e-01,9.939588195886307487e-01
2.375526708020103683e-02,7.703598849992532305e-01,-9.988562821157881411e-01
8.540194290969804758e-01,-2.442585181684737705e-01,9.999660169702772050e-01
6.712411588690849751e-01,-8.119014136582052288e-01,9.999992758584168584e-01
-6.054906620377558113e-01,7.700220468849883204e-02,-9.978296509036596040e-01
4.472217378791907283e-01,2.301769020074773131e-01,7.951283944394627046e-01
-6.507356813094673509e-01,8.692539145019773095e-02,-9.987493465063803644e-01
-2.912721580391877119e-01,-2.110823380851631903e-01,-3.807607558461917896e-01
-7.737974576906418989e-01,-5.104288644402148467e-01,-8.659966682562648677e-01
-8.380974500395965698e-01,6.792821671213666868e-01,-9.999994857977920759e-01
-9.986626425831190978e-02,-1.558474565247736088e-01,2.728180433970705532e-01
9.329108851002243519e-02,-5.235108769918332960e-01,9.958179999402210214e-01
1.122293943760186430e-01,6.708091788786816334e-01,-9.925265190965305573e-01
2.980614385050046611e-01,9.074081063706875838e-01,-9.954950321419876458e-01
-1.460980655236434611e-01,3.928479778731452932e-01,-9.909126078436854002e-01
-4.644904401901950308e-02,3.878734861843946558e-01,-9.743442860443959352e-01
-2.484359954418362548e-01,-5.542604224089326959e-01,9.102742472938786245e-01
5.951206498017083124e-01,-3.168408742570540948e-01,9.997810303781607955e-01
1.754680342256866865e-01,6.558348190773861663e-01,-9.837341400720331919e-01
-6.882210694045640675e-01,2.369314643640563212e-02,-9.983823877087126819e-01
-8.452392588243735627e-01,-3.970946352662334533e-01,-9.776192156699234914e-01
-2.451592858549433984e-01,3.954333624998165320e-01,-9.967019690801993681e-01
3.508848597330835872e-01,6.480051287323300713e-01,-9.025121471063881629e-01
6.394788247494749278e-01,4.220481835922034186e-01,7.958367467360071279e-01
3.850760338720902176e-01,-9.016949261691267203e-01,9.999948399536702226e-01
4.690232672632899114e-01,7.721467810050406388e-01,-9.079308898185646237e-01
4.994270624525618540e-01,-4.116360741092894848e-01,9.997790545377150950e-01
1.790677847847912396e-01,-2.892749990128427040e-01,9.816749339096215721e-01
5.376731883658303346e-02,3.617946483860476903e-01,-9.121433281459023767e-01
5.413909753836798622e-01,-4.463676717723397136e-01,9.998973813226816887e-01
6.454964326859553569e-01,5.240920950277867529e-01,5.420271918394279353e-01
-6.899559438919511400e-02,-6.910029277828211303e-01,9.960296986369704397e-01
-2.011766437580431166e-02,-5.179751837367239098e-01,9.863263997083334678e-01
5.846092243528255850e-02,-5.336000853176285919e-01,9.946472394748536727e-01
-2.368639294455410216e-02,-5.582745652857961094e-01,9.905097560308793181e-01
-6.737804311144586222e-01,5.970083682546512005e-01,-9.999939457123853126e-01
1.415227450372857909e-02,9.884123602599175218e-01,-9.998825517095911719e-01
5.726734366138130916e-02,3.002457941836815802e-01,-8.381410114991575400e-01
-8.891158481837941885e-01,7.937465311349798380e-01,-9.999999017230832843e-01
3.673440816945632292e-01,-2.775267553560283318e-01,9.968398712354761271e-01
3.933227784131352323e-01,9.795175035617642578e-01,-9.943247560320529477e-01
6.991483867708039313e-01,-2.007295251122076518e-01,9.997529094010451090e-01
-4.215668816960969068e-01,9.639347266678892634e-01,-9.999980774725634181e-01
-9.157719739247429658e-01,-3.889998617913947854e-01,-9.897421913413499972e-01
-1.612463781583359790e-01,2.485997205073171568e-01,-9.673456030175803244e-01
8.767185469717975188e-02,5.133839626973455417e-01,-9.720695436170573300e-01
-4.613919501005909751e-01,-5.281968430746963872e-01,3.221322887298317394e-01
-7.913950281928214814e-01,-1.490518530406950148e-01,-9.967591068768366647e-01
7.639899635299807201e-01,-9.022247515528836193e-01,9.999998839216018842e-01
5.323029295815833173e-01,2.076270637313639700e-01,9.251129295684582532e-01
1.461468738042899229e-01,3.721683075358945825e-01,-8.110559371446743882e-01
9.585297735174698186e-01,-5.666336503906490574e-01,9.999995243042160142e-01
-5.892606264113928738e-01,9.539942961794494192e-01,-9.999996030288559323e-01
-6.639805756440511075e-01,-9.709132438240453133e-01,9.112192381947143982e-01
-1.736161595799943225e-01,-2.517052432704613985e-01,3.717441558431724968e-01
1.222054745588050384e-01,-3.750251649295699430e-01,9.862410049689074309e-01
3.743385840622313054e-01,3.622088962317404626e-01,6.057418869450735543e-02
7.326891542811584390e-01,8.864827033715436677e-01,-6.463288118166077290e-01
4.574262253296041969e-01,-2.939214427311904743e-01,9.989092339504638263e-01
1.514813436028035198e-01,9.255029290191685298e-02,2.864138567044581252e-01
-7.472970622384693673e-01,-9.552573071584460340e-01,7.778095599904003565e-01
4.245098536577951442e-01,5.384856072190393750e-01,-5.152702389380585668e-01
3.317098594011445023e-01,6.419176382962827887e-01,-9.139567409971826040e-01
9.470895657484743602e-01,6.117955507132422088e-01,9.324019660046144464e-01
-7.518109907137096037e-01,-8.703713776918400313e-01,5.319077960992844023e-01
7.363028807263121145e-01,-2.699888338297253831e-01,9.999147406350963330e-01
6.474789875158353247e-01,-9.016339472903021068e-01,9.999996256154483065e-01
-9.346727069402940291e-01,-7.916261683773269109e-01,-6.139476357631163950e-01
4.639070549345254424e-01,-4.365117758654273317e-01,9.997542421887019026e-01
9.528909628997974668e-01,-8.214683416235568636e-01,9.999999606372493854e-01
9.299892909110591965e-01,-5.829555078327954831e-01,9.999994624806489707e-01
4.115834055771725453e-01,-9.415770696682419505e-01,9.999973433879176810e-01
-1.084073518473593900e-01,-7.798189362174159367e-01,9.975756251602121427e-01
-6.444613394129152795e-01,9.110156815355248128e-01,-9.999996486992717148e-01
1.216532892611941197e-01,-2.570368728453638063e-01,9.556732572304332818e-01
1.175136727759238386e-01,7.917586390046567058e-01,-9.976432731250078900e-01
6.411523246351777949e-01,-2.436552357117884871e-01,9.997127254187594403e-01
-4.266338110540845996e-01,-8.604618868982694124e-01,9.742187554084059675e-01
-3.751627314467254060e-01,-6.666015942890766155e-01,8.971063039711825171e-01
3.623552244980163817e-01,-1.445834603630560267e-01,9.875059939446186874e-01
4.201782767191684087e-01,1.726878079651668063e-01,8.447274249967734461e-01
8.329626313987021913e-01,6.881574665536969171e-01,6.193967993356997992e-01
3.427414276136730997e-02,-9.030927334508835891e-01,9.998301519780313784e-01
-7.132625298716532836e-01,-5.349396574377518476e-02,-9.972766731842883647e-01
-4.474711184385282703e-01,9.466534637590073853e-01,-9.999982363050096135e-01
-5.974525106497905469e-01,-1.866980833161180353e-01,-9.676360912581698503e-01
4.747343413897515685e-01,-9.988410261890530162e-01,9.999992031559858940e-01
-4.046505953954788737e-01,-6.950039949993203070e-01,8.960417174432583343e-01
7.954852365955391580e-01,-9.076261464268364776e-02,9.997168327726456694e-01
2.079892310221997942e-01,-3.120855734406300375e-01,9.890355621435463762e-01
5.747957844941153915e-02,-7.193975373621950276e-01,9.991548924162373391e-01
-8.101069198503227931e-01,9.405107668928152087e-01,-9.999999500892642335e-01
-8.044283418839226485e-03,-4.419498421635565943e-01,9.742384665202331595e-01
3.931310552020557125e-01,-4.938067207607559350e-01,9.997187794157494922e-01
-2.017930974136505906e-01,-6.367759957660741321e-01,9.745109979448399740e-01
4.247069097000373272e-01,-8.457676694144176111e-01,9.999939266587255515e-01
-3.224788273502723346e-01,-7.982497744694949660e-01,9.829756549672953314e-01
6.972482041060910074e-01,-6.915649028068484583e-01,9.999981400943893650e-01
-9.197441834172312980e-01,-6.539234592012754810e-01,-8.690300823474701453e-01
-8.625009577743507627e-01,-8.113509782865031550e-01,-2.503159910680029521e-01
4.730100636561074268e-01,3.211773897688738888e-01,6.405839044414123329e-01
-5.493984190030816173e-01,-8.043509660028476116e-01,8.550832576437435995e-01
-7.737073095230120323e-01,-1.116855575366499931e-01,-9.973372679382173089e-01
5.188772584332035365e-03,6.400276551808161685e-01,-9.965069838178084449e-01
-2.676523916334807573e-01,1.739867160522359235e-01,-9.761327793830356647e-01
7.942654682778385045e-01,3.071858032070198252e-01,9.847821695220811966e-01
4.969314601707321977e-01,-4.996678361188651163e-01,9.999060636142030889e-01
1.434972552259394796e-02,7.184613558736230310e-02,-2.798156492845675913e-01
7.601468256891124042e-01,-8.788582143407905889e-01,9.999998476222643484e-01
-7.675992711220804843e-01,2.155367302125656970e-01,-9.998925265342356594e-01
-2.969019393865695022e-01,-2.399350814573752988e-01,-2.773733960673264165e-01
6.800673918067194901e-01,2.522501363591267420e-01,9.726434167508111184e-01
1.773560709580939143e-01,1.495989871129250748e-01,1.379011645767368177e-01
-9.561396636393793003e-01,-1.086684704537210777e-02,-9.998430619564356858e-01
-4.701534222719883083e-01,-7.387435873602932190e-02,-9.626892956259864853e-01
4.469166752179307700e-01,5.331110350513064144e-01,-4.061331354504345570e-01
3.577968745238502279e-01,6.678058486962752394e-01,-9.137928933305430323e-01
-1.294887697300735052e-01,2.952472312179388325e-02,-6.612701714323931945e-01
4.811537634402067720e-01,-4.567839413500607293e-02,9.897483172766948778e-01
-7.443465132938273943e-01,-5.914127731748770600e-01,-6.438186948303977752e-01
1.746601605138999869e-01,-2.315426805226796780e-01,9.661544859544887176e-01
6.702553154559112158e-01,1.323317479227450466e-01,9.908196434959620769e-01
8.139394455410788876e-01,5.693135432334912593e-01,8.405748992777100081e-01
-6.217223201290948964e-01,-2.864372561417694030e-02,-9.947012886844603941e-01
6.873099995992575373e-01,-6.466273026955102754e-01,9.999967803163617441e-01
2.663275388461159299e-01,5.067556583841319462e-01,-8.343063680359619205e-01
9.187789752245889563e-01,-9.805053736026470013e-01,9.999999887139265908e-01
2.045183180879599494e-01,-2.120091014114500183e-01,9.694237949389887810e-01
-5.401630596798940864e-01,-5.537823856588739435e-01,6.799156664970974762e-02
6.683324115364845941e-01,-4.542292463275976466e-01,9.999733436383921870e-01
9.217267804600568493e-01,2.410039221071791360e-02,9.997472837065143336e-01
8.749730631501686506e-01,9.986185771756699303e-01,-5.498927548780634389e-01
8.938628874240981403e-01,3.966397124293303822e-01,9.862399849575722577e-01
-6.685864660050353514e-01,-1.123806918532355148e-01,-9.923476620880183896e-01
-9.631510538714496139e-01,2.292199943096393522e-01,-9.999867374983886226e-01
5.144755185130709396e-01,-1.077906753902551085e-01,9.960399425650239280e-01
2.019472540511697556e-01,-8.847406410665437093e-01,9.999618410737645124e-01
7.265400156023105183e-02,-1.451510849971193728e-01,7.965221652281900822e-01
2.092321613161434168e-01,-7.995234935794222064e-01,9.999168156194430113e-01
-2.098299296221433075e-01,2.325483727723831606e-02,-8.227996201151178690e-01
7.157539002497388392e-01,-5.277236690773636774e-01,9.999920443842142959e-01
5.482813276896201238e-01,-5.134356582637833455e-01,9.999510174855026357e-01
5.581579147977040467e-01,-7.181898248220406344e-01,9.999942730822078962e-01
-9.187557410795050838e-01,-2.848871362629126214e-01,-9.964729869613808688e-01
7.524469427493520879e-01,6.574807134023901156e-01,4.420945148809423131e-01
-4.299184749133380112e-01,-8.055015361183153200e-01,9.543063209485664888e-01
6.515920427236303603e-01,-3.081913729845993100e-01,9.998642580430380233e-01
-8.610206229013399604e-01,1.192358806173732244e-01,-9.998893870251697180e-01
-4.103225236298166934e-01,4.043608760252725975e-01,-9.994208658559888825e-01
9.005767587345976377e-01,-7.985305223784255890e-01,9.999999164587798361e-01
9.649678956465836954e-01,7.063857749845512402e-01,8.598869262972025362e-01
-7.395127353004133930e-01,2.717358145802140079e-01,-9.999188636014879616e-01
-7.639554311348157878e-01,-1.089835133396725997e-01,-9.971430523874875718e-01
6.895350555405972415e-01,-4.188902825705216326e-01,9.999692961207865549e-01
9.517853324596445841e-01,9.703281554509040063e-01,-9.244937123065785634e-02
-4.895899616241379260e-01,-6.315740271650187587e-01,6.106268699764355601e-01
7.102533812666402824e-01,-2.128695253017720557e-01,9.998041535870133556e-01
-1.703034168495878298e-01,2.150481607924581429e-01,-9.584705286319636919e-01
2.721379845026479227e-01,5.741232610102648959e-01,-9.069259858287717080e-01
-3.898439471805013046e-01,7.009230495859242183e-02,-9.800838304891767994e-01
6.265822595809349416e-01,-2.578237055492074159e-01,9.997115695848269867e-01
-7.779732874589921909e-01,-9.604683584736917190e-01,7.223182265218778264e-01
9.251986631231079450e-01,-5.620075276604774572e-01,9.999993046948860709e-01
-4.155474015466515958e-01,6.316231561198473177e-01,-9.999433481957774594e-01
4.419657218540853361e-01,-9.131795369285393704e-01,9.999973955960254068e-01
-2.352616001849010541e-01,-6.073568522697645466e-01,9.527228316292897237e-01
-4.142443235431980675e-02,9.936081946092822914e-01,-9.999360373392675028e-01
-3.009132669545233618e-02,-6.394454433807599258e-01,9.954953669406452210e-01
-4.188244214187706316e-01,-1.162223956459225160e-01,-9.074717771746936279e-01
8.319140150407198231e-01,-2.445228906339633745e-01,9.999577219709826492e-01
-3.829611247631332649e-01,7.471653097930912590e-01,-9.999752857244109672e-01
7.245199891839380069e-01,-4.338956923717753877e-01,9.999813752449864257e-01
3.861824669377251773e-01,-3.498028371207184684e-01,9.987282252964957419e-01
-1.016164389434448534e-01,-8.959907453402840005e-01,9.992905004503603861e-01
-1.970111445867117617e-02,-1.745809160170919139e-01,6.494801202787645611e-01
3.613713665234068451e-01,-6.360907387449743489e-02,9.718673211910967558e-01
7.346051315100938783e-01,-1.528187911410616717e-01,9.997201430516831078e-01
2.967885551684938950e-01,-7.584130928460572907e-01,9.999477199357348356e-01
-1.268379724381540896e-03,-2.463259598001954487e-01,8.412070956331201277e-01
1.760022338696367594e-01,1.684790184497471088e-01,3.759834527116396458e-02
-8.854489229906297165e-01,7.014026315503458786e-01,-9.999997433027579818e-01
3.875849798760717668e-01,8.514518576525240690e-01,-9.808441226523132439e-01
-8.509723784573892669e-01,-3.870476812188483606e-01,-9.808550892839821289e-01
4.883803578068350859e-01,1.530063163451123032e-02,9.825153312582999288e-01
-8.464755324610844234e-01,-7.343618101722282354e-02,-9.991218433019329881e-01
1.119304105169420804e-01,6.738865000161271546e-01,-9.927737379971101062e-01
5.087331490876514373e-01,-8.097972252809810811e-01,9.999962440091815230e-01
5.654517942987353774e-01,9.802046888083031373e-01,-9.688848864039337760e-01
-3.233980791853710013e-01,9.198377631057939041e-01,-9.999920251301549490e-01
7.994519681963692115e-01,-4.270231840809495250e-01,9.999905699490394539e-01
7.268623596003618292e-01,-8.449148414982610156e-01,9.999997015385265753e-01
-7.028082764276486483e-01,-2.534702145373608495e-01,-9.778817926692300322e-01
3.394165430731967970e-01,9.264371869930709824e-01,-9.943713045296485031e-01
7.283782440970454353e-02,9.892879601563504544e-01,-9.997906407457956002e-01
1.053036519211416611e-01,6.147627534313682141e-02,2.156952538120675278e-01
-7.423046775274202425e-01,-4.955813734064737908e-01,-8.436251425363401335e-01
-9.268904751543396436e-01,4.541524265500069824e-01,-9.999979898130727518e-01
-9.452899938853007722e-01,-7.497466297972856797e-01,-7.520758346993473564e-01
1.130090335631350751e-01,4.716089949152069138e-01,-9.460762594585589991e-01
-9.435662246063709624e-01,1.575917594867792815e-01,-9.999669817186520593e-01
-6.546967033427668614e-01,2.434600552633716664e-01,-9.997486203227143875e-01
-5.814770596921763346e-01,7.576465331164683459e-01,-9.999969430420669880e-01
-1.881126423899293076e-01,5.975484273483189224e-01,-9.992259318396775614e-01
8.505354341099566895e-01,-1.973623723072177594e-01,9.999437586892665486e-01
-2.290911235771329046e-01,-1.716661366700347191e-01,-2.794864616382077283e-01
3.019432291348735919e-01,-9.179669189542389862e-01,9.999899300955040760e-01
-8.113505847918418556e-01,-4.461522587541955076e-03,-9.993739351030175300e-01
8.482473287315508426e-01,-6.439763817356844999e-01,9.999993387211695284e-01
9.301738941999664334e-01,6.392783411275442251e-01,8.965747387423246284e-01
3.524906929713056414e-02,8.253611722245419724e-01,-9.992596178664165940e-01
1.614728174973201202e-01,-1.908094872024204136e-01,9.426604489375468576e-01
-3.927980531867518721e-01,5.040346570290399342e-02,-9.764984376161376378e-01
9.238040883941756043e-02,7.115537626610786148e-01,-9.959158046354870120e-01
8.764426990698863662e-01,3.386303991395887003e-01,9.908094700140411826e-01
3.495561278925531923e-01,-2.339420704926828964e-01,9.941700917375747570e-01
-8.256483032788208831e-02,-4.091208867621065615e-02,-2.053039865132884056e-01
-3.099492884793786374e-02,-4.613265941731254927e-01,9.733136338721610770e-01
4.825557047810451472e-01,-5.344257004023122981e-01,9.999233840424637254e-01
-4.667241676368052428e-01,-4.891041608960671194e-01,1.114352381828952188e-01
7.659820056326862581e-01,6.005054425726668033e-01,6.790681984990034614e-01
1.180134922191420355e-01,7.242571353975297832e-01,-9.953533802729862545e-01
9.364611890247287462e-01,-2.052805471160144002e-01,9.999779958873394881e-01
-9.874951160268297112e-01,-7.501347249543608431e-01,-8.295843928299191372e-01
2.803614966377745432e-01,-5.643591958386344754e-01,9.995710946187515988e-01
-2.207813886623155586e-01,1.767564069583071884e-02,-8.312862372787472864e-01
4.943606714677959424e-01,5.556801775449338177e-01,-2.973385873477104036e-01
7.085354340529130823e-01,5.928050813052661017e-01,5.216848130385929316e-01
5.073016406220414165e-01,8.524957358412037500e-01,-9.385779425932379016e-01
4.456852590483701970e-01,8.385877622347703841e-01,-9.614326752050019742e-01
6.418866610300808517e-01,-3.303083503756547579e-01,9.998801012456035586e-01
1.892842753125345556e-01,-8.123400730405012649e-01,9.999106671226483112e-01
-8.689363952502819899e-01,4.400767685636530757e-01,-9.999958689813011059e-01
5.617676153283548413e-01,9.651629008238293839e-01,-9.652075541721700791e-01
-9.214406524565910139e-02,-4.651583957067939590e-01,9.531452223028747950e-01
4.889361687535351830e-01,-9.069471851813442065e-01,9.999982670531641915e-01
-6.250795501950430211e-01,2.736053501185995440e-01,-9.997499442983310836e-01
6.227385305026944540e-01,-8.179620429541178961e-01,9.999988930024390488e-01
7.517618634260703203e-03,3.611232417858072363e-01,-9.433929004700645216e-01
-8.255564252606411024e-01,-4.593010474996481740e-01,-9.499508428804661619e-01
-6.970617323583363500e-01,7.393402235123136546e-01,-9.999988443793002002e-01
-6.051280758462407317e-01,-2.453030794751389632e-01,-9.467153222784808753e-01
-3.140693783517205517e-01,-5.598758624162729625e-01,8.422984405128628449e-01
-8.266669669556552247e-01,4.050914235198610491e-01,-9.999910552268028718e-01
-1.922098054143355217e-01,6.362332976253566308e-01,-9.994952948871721476e-01
-1.367930683211273646e-01,-2.306633537997917482e-01,4.376751313540734878e-01
-3.956547429486323431e-01,-7.673556381541342120e-01,9.525404556906711395e-01
-6.171310691174740626e-01,5.038364708523623836e-01,-9.999729153053199537e-01
-7.670981736688331498e-01,7.000995326910168792e-01,-9.999991506804246644e-01
7.316254808281303923e-01,-1.229177109705821280e-01,9.996112130884990954e-01
-8.204383249694673363e-01,2.504038721962964509e-01,-9.999552892747528565e-01
-8.534516922645956072e-01,-8.413300093268893942e-01,-6.053431099298128143e-02
-4.780213437055851333e-01,5.393796497168108495e-01,-9.999237048282869633e-01
-8.520987630043044270e-01,7.710200655794126057e-01,-9.999998213864305097e-01
6.172886299368607332e-01,-9.833504036201654586e-01,9.999997763633649006e-01
-9.561309854777881867e-01,-2.730664349254783296e-01,-9.978420096904903058e-01
-8.382761415409094585e-01,-9.781208853047496099e-01,6.038748095374343317e-01
1.375754059944516161e-01,-7.991001504773660447e-01,9.998289738178007813e-01
-9.281827731957534855e-01,-9.490570703775080830e-02,-9.995191061300828794e-01
-2.682326298368375994e-02,-4.946848972701374247e-01,9.815873641719049525e-01
9.025779710976016279e-01,8.213762993835738158e-02,9.994532558731905603e-01
-8.248053598258244801e-01,-2.039000712363217005e-01,-9.959857904574385135e-01
-3.270579184965731745e-01,8.232465206543542191e-01,-9.999798016029405323e-01
-3.498964980698335836e-01,2.246833551656230998e-01,-9.936280034995567112e-01
1.654621318244657857e-01,-6.649821982355690331e-01,9.995052923146519053e-01
-8.097063446649186425e-01,6.794555592888817941e-02,-9.996914189813269624e-01
-4.583860582153955754e-01,-4.240892673123493051e-01,-1.698225657951031864e-01
-4.651810753558927036e-01,4.904645155153370961e-01,-9.998585238588282298e-01
2.255632861626999386e-02,2.562494030336313067e-01,-8.237795836895237533e-01
-2.981319604696095471e-01,-2.381131545056554000e-01,-2.913986602578956808e-01
9.606765429669648082e-01,-9.652795456788560990e-01,9.999999913561150588e-01
7.798011573773138139e-01,2.903594794301693760e-01,9.851347644428507522e-01
8.356505241791889471e-01,-9.250718533059245630e-01,9.999999548861533416e-01
9.052970078112250185e-01,-9.793474538917343875e-01,9.999999869345884695e-01
-5.717594246102064570e-01,-2.353460317801923107e-01,-9.331292653924949665e-01
5.259936358681862600e-01,-8.128105677928718631e-01,9.999969332628815266e-01
-7.237366163965779364e-01,6.047079858439929900e-02,-9.992146018296980126e-01
4.321303525199322593e-01,4.592182251099905521e-01,-1.346172363228586022e-01
9.034148063808675744e-01,-7.700529232746775588e-01,9.999998920427120019e-01
-9.531438493661770206e-01,-8.698811897372904500e-01,-3.938200463828268050e-01
-2.058669613157102507e-01,5.838852602077109211e-01,-9.992569495602383611e-01
-6.437781716900794482e-01,-8.129751982172923608e-01,6.889661864601873686e-01
-9.988543240712344229e-01,8.701485834351769810e-01,-9.999999847224575467e-01
4.419222503445829897e-01,-7.227018999083165696e-01,9.999824963840701075e-01
-6.002609960799072386e-01,-2.116033285344551818e-01,-9.597939318029882205e-01
1.111439635616096044e-01,8.221417178891960997e-01,-9.983675069311676031e-01
4.771488379045583095e-01,2.574092966370544744e-01,8.000307482597568409e-01
3.200135584369327990e-01,1.560794874839954716e-02,9.090504329183944909e-01
-8.615942755067349523e-01,-4.118304333214277690e-01,-9.779747325230215838e-01
6.623520509800260303e-01,-7.082934934117470771e-01,9.999977695548611933e-01
5.494542046772705746e-01,7.942918858450802588e-01,-8.408853382657143216e-01
-7.243845621472968510e-01,5.463596728716924034e-02,-9.991728064040974466e-01
7.144468868002527007e-01,4.169631563465014956e-02,9.976078322860695291e-01
-8.469729349276788888e-02,-5.673895116004130657e-01,9.841050562248084832e-01
-1.961555948322106779e-01,8.007173751890461766e-01,-9.999063203299319857e-01
3.042247220764071614e-03,4.796577801011117081e-01,-9.831176260658897048e-01
5.715506870770092895e-02,-5.257730623451795093e-01,9.941368601327738030e-01
-5.315936195903816497e-01,3.225057390655028389e-01,-9.996094840260234538e-01
5.702253449730976254e-01,-7.048387027574465336e-01,9.999941990925583779e-01
3.959632964259027776e-01,-2.649940382893947177e-01,9.973088123212839884e-01
-5.362426268222642012e-01,-4.879248394816892986e-01,-2.369960039560341236e-01
2.105361928900346680e-01,-8.524953283870417842e-02,9.012670665769717537e-01
7.661878990492005936e-01,4.490374280193738521e-01,9.194955095578613014e-01
-8.299103389662298991e-01,-6.564933332341833516e-01,-6.998900789129314237e-01
-8.141148988675519504e-01,-7.977780090473782781e-01,-8.150325695287451155e-02
-3.462282065058306380e-01,9.267222566896027303e-02,-9.754782257948632074e-01
-4.279605823371683826e-01,-4.023002451124966239e-01,-1.276022858330489729e-01
-9.648386351098423575e-01,-6.612821539519373459e-01,-9.083104217744649711e-01
-5.734691450436038007e-01,-7.921767627113951438e-01,7.981658581805864960e-01
4.855468307082724255e-01,9.445852119336708430e-01,-9.799060085034789758e-01
