-1.000000000000000000e+00,-1.000000000000000000e+00,0.000000000000000000e+00
-1.000000000000000000e+00,1.000000000000000000e+00,-6.883287773959861910e-01
1.000000000000000000e+00,-1.000000000000000000e+00,6.883287773959861910e-01
1.000000000000000000e+00,1.000000000000000000e+00,0.000000000000000000e+00
-2.210063376624260556e-02,-8.989386377182202459e-01,6.881146394942716515e-01
7.685358570037514880e-02,-9.170611307093472497e-01,6.882623618651255715e-01
6.161889040593926392e-01,9.905072580182041619e-01,-6.564854600830709597e-01
2.774195374872940878e-01,8.917191725273643232e-01,-6.853774049471009766e-01
4.734397900290152617e-01,6.441127654502836197e-01,-4.768901992009557667e-01
-7.710546074663870986e-01,4.700259300091651493e-01,-6.883231713054970280e-01
6.429632744787427967e-01,-8.522314678704250301e-01,6.883283383807767830e-01
-5.842774661462111219e-01,6.113536125024170431e-01,-6.883199440782306056e-01
8.289575422612465161e-01,-7.022242656658499449e-01,6.883284719234066262e-01
9.162016773218841781e-01,-2.565281064476523376e-01,6.883176700385091884e-01
4.371789139948611957e-01,-7.921387885579813659e-01,6.883224711687093711e-01
7.538487465408705290e-01,1.670123838309205411e-01,6.844472609342775460e-01
3.629015122884202693e-01,7.723034230635441588e-01,-6.657533978681423603e-01
-6.420292540024952199e-01,-6.075952439405316596e-01,-1.173523457237751616e-01
-7.859363547892384005e-02,6.330643858019138204e-01,-6.872124772009803317e-01
2.643596357385782358e-01,2.902069597409404622e-01,-8.846531359558847118e-02
-8.992000719414261489e-02,1.256282494071598865e-01,-5.454041808749247044e-01
3.402501075084309878e-01,2.905317496162755919e-01,1.676730828587359723e-01
-9.065805751885207542e-01,-4.768001466759581586e-01,-6.698596123413669279e-01
-9.832318090251506160e-01,7.144359013655967594e-01,-6.883287218958674680e-01
-9.388300080008722404e-01,6.879182406650146131e-01,-6.883286616708087502e-01
-1.800007802481395913e-02,6.164445964929043953e-01,-6.859149564942321753e-01
-7.942959996513065946e-01,7.493240311088795735e-01,-6.883285079826522157e-01
-1.510420873643507633e-01,6.006924938972502126e-01,-6.875808723475563822e-01
-5.329854843507171314e-01,-1.721025006548306813e-01,-6.520272210415373193e-01
-8.753403876477638956e-01,8.546177211575969324e-01,-6.883287379945204343e-01
3.860325823947743373e-01,6.218939302914030520e-01,-5.694082020199054961e-01
-2.918180486280297359e-02,-9.319986842591920784e-01,6.881636259162519087e-01
-7.914967510457788791e-01,-7.380894488530045372e-01,-1.795609941098696982e-01
7.451940023584346928e-01,1.867921940858019436e-01,6.831754389152766560e-01
9.566780104027443610e-01,-2.546411732028046604e-01,6.883212270302837554e-01
2.367118635726239706e-01,-5.459947649399099490e-01,6.877799967050229890e-01
2.513128497638938974e-02,3.301291928625813554e-01,-6.260785600538323337e-01
-9.020768631982636343e-01,-4.109367033293231941e-03,-6.881554206136931695e-01
-3.495277720786691411e-01,4.037696957566996314e-01,-6.875924642276410870e-01
6.963873805390907723e-01,8.646249778219217141e-02,6.852457192874250591e-01
7.870966794543907685e-01,2.219232031975870711e-02,6.876731158260114274e-01
7.640446748685874034e-01,-7.144993230497260761e-01,6.883282583293223178e-01
8.717017512795832701e-02,8.746276457878066068e-03,2.568746541792293892e-01
4.879716265435345424e-01,6.630176801580169865e-01,-4.845984387965636686e-01
-8.240828581520411866e-01,9.017187165745166322e-01,-6.883287362018447597e-01
-3.985419958142475405e-01,8.896949972582701704e-01,-6.883252801158175060e-01
-9.255346670982353974e-01,6.404180259741729664e-01,-6.883285624726804830e-01
3.988279081733847597e-01,-2.355196145902995752e-01,6.859126144004479286e-01
7.628648900551775469e-01,-8.292497642829612658e-01,6.883286126003868022e-01
2.498574325459324008e-02,-7.004886238788492481e-01,6.873564273121257617e-01
-9.679097302180990070e-01,-4.256745817099443219e-01,-6.822751672920167598e-01
3.692283667319422591e-01,-1.808301877954210379e-01,6.827288609912793849e-01
8.562370296813510695e-01,1.442013398222581344e-01,6.872166817763641911e-01
3.800945344462935971e-02,-3.864466863003799268e-01,6.688638920548466427e-01
2.542163090494702349e-01,5.163540813240574678e-01,-5.950255458518211027e-01
-2.998562963688677918e-02,-9.680650887970181362e-01,6.882126990103727415e-01
9.987017839468737002e-02,-4.646906888028785598e-01,6.834821758158299287e-01
6.829998960757577287e-02,-8.801951029102887958e-01,6.882241803798397894e-01
-5.491843878025937098e-01,5.919154714105199222e-01,-6.883135366387687082e-01
2.039011982237235454e-01,-2.735922009755815676e-01,6.768088735390249688e-01
-3.796533573533038552e-01,-9.531012265394480654e-01,6.838929813231797716e-01
7.095152074290480559e-01,-3.484790196955920294e-01,6.882937853673202211e-01
-3.205197833510180505e-01,8.622377772658611494e-01,-6.883187300976071343e-01
5.142249627958306313e-01,-1.965633094602230457e-01,6.872027337976559513e-01
3.775612629071531945e-01,-1.435462839092396248e-01,6.808587627441352597e-01
-3.686890625206533656e-01,-6.253228157790147179e-01,5.901227747291198922e-01
4.301582312730551916e-01,-1.096121894161794508e-01,6.821247890166808325e-01
-5.742562406897084859e-01,-8.821360565253766328e-01,6.277691579601666350e-01
5.005780422969501320e-01,-3.483010085409787848e-01,6.880455747250354692e-01
1.276633391930059869e-01,-5.297789479709194005e-01,6.864101792370090882e-01
8.229637962175619936e-01,5.837196221881018054e-01,5.730325113587116936e-01
8.383580520389124491e-01,-3.979952033000322409e-01,6.883228997896808643e-01
-5.477275189415466983e-01,2.755302508849621912e-01,-6.879628928654374365e-01
8.274574411403219365e-01,3.469948696723048620e-01,6.771431529960814100e-01
-4.644854518417211864e-01,-8.774121305627806677e-01,6.665228826143103635e-01
4.851007487146659081e-01,-2.488892176837753656e-01,6.874357499498716662e-01
-4.689997375045700245e-01,3.936572936871978179e-01,-6.880820194233937537e-01
9.886124443758577129e-01,6.986151233161910223e-01,6.165293601925728728e-01
6.021574685801049931e-01,2.097251893665512679e-01,6.616590802995752085e-01
6.920817589797243485e-01,5.195503253525108889e-01,4.801948018819047204e-01
2.469816884737823237e-01,-3.929107866376515545e-01,6.860427265047491785e-01
-7.445287829293478765e-01,4.540654176900720262e-01,-6.883202020616003836e-01
5.238397016364544356e-01,3.343952781637511418e-01,5.083465386230745509e-01
-6.059225358397357653e-01,6.988145172766233593e-01,-6.883258125063859145e-01
5.889229271224227791e-01,7.279767145146689433e-01,-4.139307765699790087e-01
-3.262593658546635300e-01,-6.012862769580720190e-01,6.056309594770539206e-01
5.431704259631837672e-01,6.166133450393125326e-01,-2.419840125320721347e-01
-7.310954819321298093e-01,4.354477388026207763e-01,-6.883169609987292992e-01
8.283312721813580470e-01,-8.184736715152636233e-01,6.883286832175937731e-01
-6.445477337094800419e-01,7.589747259645558408e-01,-6.883276751248321723e-01
-9.105585731421530493e-01,-4.423330350729797189e-01,-6.757004479226236260e-01
-8.908065382074354943e-01,1.534133449224877044e-01,-6.882886174390456802e-01
-9.572326230307484085e-01,9.485831191120672745e-01,-6.883287729561380353e-01
-9.272217804403519725e-01,8.365198439186631862e-01,-6.883287501038890532e-01
-8.785914769860256879e-01,-5.830963523988073050e-01,-6.201800695357497784e-01
5.439014345342674250e-01,-3.653964311659476660e-01,6.881739889024909296e-01
-3.016908055650067144e-01,5.118753561738338398e-01,-6.879256681758739722e-01
6.503796140327755548e-01,-1.598399942754715752e-01,6.879119536988907990e-01
2.366898956159237954e-01,-3.843405106610973121e-01,6.855691323095757239e-01
-6.214704221550650942e-01,-2.335903336945570619e-01,-6.604421287103425797e-01
-9.724379877895605873e-01,6.376966117998366101e-01,-6.883286402424738659e-01
-9.237480341541288720e-01,9.483634024957703357e-01,-6.883287700393804220e-01
-1.659620314380709782e-01,7.048799339393450047e-01,-6.881014089634316377e-01
-9.223530820379652884e-01,-8.727703842737084550e-01,-1.672338211659298579e-01
9.956082452761305657e-01,-5.472634870413737307e-01,6.883285059377624027e-01
4.248064196398577685e-01,-2.139475456606019232e-01,6.860165947989521618e-01
1.422189297760598770e-01,-1.551036493003574712e-01,6.213541077119117961e-01
7.251704031911139214e-01,-2.204375063423806846e-01,6.882211166113677558e-01
-4.946626014265054216e-02,9.335989307816838778e-01,-6.882547507546854515e-01
9.831116833005555389e-01,-4.489143657488032790e-01,6.883279492056902926e-01
4.965118316084591310e-01,-5.815999934090827495e-01,6.883001624013962427e-01
8.420313813661115532e-01,-1.697294172184704575e-01,6.882732170555828644e-01
8.364183346693003784e-01,3.591854702863146453e-01,6.767790731703146045e-01
-5.473833768966678281e-01,4.799460764454579476e-01,-6.882812274661708196e-01
-1.040582151191320470e-01,-2.430080833246062166e-01,4.137023901281989824e-01
5.824064923296923268e-01,-8.863150144651121831e-01,6.883282044631555685e-01
-1.427193977008889281e-01,7.305010558348781213e-01,-6.881067522928322466e-01
7.542146880653304297e-01,5.032508133190516375e-02,6.871223798870980115e-01
9.622199224447192112e-01,6.218905390718669768e-01,6.440104802039409160e-01
-2.150234770587453603e-01,7.821580684563074204e-01,-6.882644964814242927e-01
5.832093093452406229e-02,-4.924345419765774334e-01,6.827675950746602274e-01
-7.892267362022733490e-01,-4.611794919977847407e-01,-6.384287862268182012e-01
-8.179321937601977677e-01,-2.175889034427780366e-01,-6.849364615397476319e-01
2.803375700661698833e-01,8.053268110907685351e-01,-6.811416855509961898e-01
1.873879890825425054e-01,7.132856572293244657e-01,-6.812063431506456546e-01
-1.845974834407020371e-01,-7.851045624370827092e-01,6.849419995679973949e-01
7.688961052991056810e-01,5.293346822959208442e-01,5.733672112435160839e-01
6.265055013174005705e-01,-1.456141739723533224e-01,6.877187374587765412e-01
3.184580900107270018e-02,-6.308259798823350195e-01,6.865078048782504716e-01
-5.929964458868284272e-01,-5.401484074543001501e-01,-1.777658855621392087e-01
1.026443349678136663e-01,-9.732598147648074960e-01,6.882995236006383966e-01
-9.775102150898384856e-01,-7.101734519933113887e-01,-5.994472492536573327e-01
7.766576916402498920e-01,9.222400033869475600e-01,-4.279931990239174699e-01
-3.485245765605555768e-01,-9.337577123775189225e-01,6.843847095780303258e-01
1.532886653882679084e-01,3.272714359591675226e-01,-4.827458706479429984e-01
-7.133965142139451210e-01,6.456334701532042697e-01,-6.883270558527996297e-01
-7.422117199572215718e-01,8.500539367338277863e-02,-6.879770929336628260e-01
3.029467682036317555e-01,2.128469428726154078e-01,2.906875775914948279e-01
5.556579289456571313e-01,4.723540121051281737e-01,2.711976328041682538e-01
-4.768467413582622161e-01,5.276338260589292783e-01,-6.882690212232935867e-01
-6.540612184617309310e-01,-5.514963717363723372e-01,-3.249894654197332255e-01
-6.726778396262849125e-01,9.007584250511586621e-01,-6.883285781741226295e-01
1.281871360084321232e-01,-4.249745237068238701e-01,6.828992890704319585e-01
-1.956173696361174219e-01,-7.775909915232208647e-01,6.842544206674248120e-01
-9.948552717641081511e-01,2.966502912298913941e-01,-6.883253926698551517e-01
-1.400700010572950571e-01,-1.140669188693768099e-01,-8.899247029257495445e-02
7.501843674760546588e-01,-8.802137085570320707e-01,6.883286659201235391e-01
-6.173109333526483056e-02,-7.183769971435751689e-01,6.863948603649338009e-01
-3.346209951342093980e-02,-1.217871661378164827e-01,2.856500916735832396e-01
-2.085372798739968392e-01,7.525720337617540778e-01,-6.882365757326054378e-01
6.214820489667776116e-01,-6.468346786225602774e-01,6.883245085898396232e-01
-2.211732321572617010e-01,3.488003725708122005e-03,-5.566623922476674480e-01
7.435377330441748089e-01,9.485658630782056733e-02,6.862347719343302455e-01
5.972703931139629052e-01,4.653344229928091380e-01,3.979575014795893595e-01
-2.312864532066316592e-02,5.873006190159135720e-01,-6.852611959646706108e-01
-1.796504289528246812e-01,-1.791082230664686747e-02,-4.604034382149959637e-01
8.402459438692764238e-01,4.478837232239984978e-02,6.878456712071736590e-01
-3.351535983511766403e-01,-8.382336947844348796e-01,6.793926691362632830e-01
3.329163886927277716e-02,-1.503165550273219964e-01,4.990172559463947888e-01
-2.262147864653685225e-02,-3.955918326487697367e-01,6.560634345579267057e-01
-8.911563919074043660e-01,-2.658688079280162597e-01,-6.856839288325045079e-01
-4.782769541897680110e-01,-9.160422935420533541e-01,6.712594421121691468e-01
-2.895299376891422583e-01,4.430579236016638500e-01,-6.874231488296758119e-01
-4.988510750841905761e-01,7.511598957873566462e-02,-6.839158784739631791e-01
-5.721585971466256471e-01,8.045631673642676951e-01,-6.883273354631601615e-01
7.757921552915798546e-01,-1.485661785782779187e-01,6.881956285444781329e-01
6.700561831396014689e-01,1.893650520404115412e-01,6.771684826095321075e-01
-1.020707725382399289e-01,-2.225518203312426557e-01,3.708432360338043687e-01
8.014400086241257881e-01,8.434068105627097189e-01,-1.423516328129799946e-01
7.172937907475263053e-01,3.676339505538461783e-01,6.478424217758587123e-01
-9.885727551555973935e-01,3.013285385896766755e-01,-6.883253378860848537e-01
2.314434606522333127e-01,-6.000254846987498336e-01,6.879917290680307440e-01
2.919223874115530748e-01,-9.289941276110227353e-01,6.883219182336099973e-01
-9.328531028001618708e-02,-5.502430132916777961e-01,6.742096909485375544e-01
-1.913174806124340321e-02,2.152116162608330718e-01,-5.677485579074641464e-01
-7.402365970541469054e-02,-4.767545070543981467e-01,6.642232802739791442e-01
2.232183575512658447e-01,3.664903188738324324e-01,-4.230808846577909232e-01
-5.232453926668274580e-01,-4.216395543321826977e-01,-3.224188581262704689e-01
-3.079597745402731235e-01,4.850603363172689697e-01,-6.878337552150382006e-01
-4.717689815335526227e-01,8.098838097780576284e-01,-6.883250419055626512e-01
2.386927344193803258e-01,4.882408192158771421e-01,-5.834610683597708514e-01
6.501891560182249119e-01,5.934093877686634766e-01,1.903295800332304721e-01
-1.686016614244938427e-01,2.588957979639294749e-01,-6.694389692431392813e-01
-8.490169008279424556e-01,2.375742902126039002e-01,-6.883024889343543062e-01
7.751735596537412398e-02,-7.727786501730540270e-01,6.880495585156598537e-01
-4.439673639346721767e-01,-8.927854783101474290e-01,6.730256977282845776e-01
-5.691009302886542720e-01,-5.677361007136243476e-01,-4.697184468875600753e-03
-5.380121073874708504e-01,-7.672719518741226707e-01,5.620372270192588449e-01
-7.267010629204466721e-01,-7.340067304900108613e-01,2.513232904368338169e-02
9.218907169666037404e-01,5.461263977550836479e-01,6.569321649865954571e-01
9.938252040934298925e-01,-5.605482185563650521e-01,6.883285357396924375e-01
-9.558900974655366589e-01,-3.443952800622513966e-01,-6.852936374900704397e-01
-5.628376052995798240e-01,-7.884379092781212961e-01,5.577763358349315803e-01
6.708690715305736241e-01,6.615710165384540709e-01,3.197755938876645915e-02
-2.587229697788411276e-01,3.962022290621816101e-01,-6.863613433296096300e-01
-4.796525784146730143e-01,-3.517747121826608758e-01,-3.885503161268028527e-01
3.933154480602798486e-01,-4.369631125073791811e-01,6.879876938868837444e-01
-6.700315968080170492e-01,4.997429262474213374e-01,-6.883173368063232322e-01
3.795281026087102827e-01,8.350536990749750643e-01,-6.740081542628750810e-01
-2.967946398074352565e-01,-3.426336983891078436e-01,1.550561197180182760e-01
4.734390709273128550e-01,-7.670636328021240846e-01,6.883231388015320640e-01
-3.898637569787521961e-01,-7.316325390931648354e-01,6.446237210811351925e-01
-4.257188330576300306e-01,-9.401029328170658061e-01,6.803422651047462688e-01
-8.776367409184724355e-01,9.325144829208014130e-01,-6.883287612909129161e-01
2.697693480072618222e-01,-9.250035334772568341e-01,6.883198679207646054e-01
-2.563148351555977200e-01,-9.156696670922543912e-01,6.864464749757102080e-01
-7.863064602749492149e-01,-9.873993487147680881e-01,5.258002772708965100e-01
-4.378794056872679086e-01,8.789069262041653285e-01,-6.883261493917925966e-01
4.017617760589835552e-01,-3.199870913605979972e-01,6.873195461249065330e-01
8.278000020898843569e-01,-8.260371905736607623e-01,6.883286898056342196e-01
1.885167530960023541e-01,2.132183158573375259e-01,-8.458433136134259345e-02
6.284741998939824548e-01,9.892027888789696188e-01,-6.519726113719616079e-01
8.931722453617727542e-01,-1.575325604637667354e-02,6.881734115055549994e-01
-7.181318953610364986e-01,2.380015294916304480e-01,-6.882318720065407902e-01
8.141672469355298869e-01,-9.373195455621097238e-01,6.883287461757805481e-01
-5.048474054755482943e-01,5.645419596475775847e-01,-6.882975541820767207e-01
-4.991641682121252810e-01,5.633119355802533867e-01,-6.882953191285630101e-01
2.441926708810633340e-01,3.588020301284300384e-01,-3.562743958205938366e-01
2.584626440937780600e-01,-7.874859325711092151e-01,6.882893057442834861e-01
3.764202483286540613e-01,9.951304165394774248e-01,-6.855044861984136428e-01
-9.418189182581275798e-01,-3.064633026243557268e-01,-6.859368071273125311e-01
7.891038618772090452e-01,1.087151027804709180e-01,6.868031351091459236e-01
7.621393916269549873e-01,-9.161443231408135102e-01,6.883287094173348164e-01
-7.064514998316167027e-01,5.729459612771512500e-01,-6.883249566362197314e-01
-7.411421243511011614e-01,6.295438433218243368e-01,-6.883272455743913998e-01
-2.209488658293943253e-01,6.254672525908020475e-01,-6.880385144474215897e-01
-4.170876277261150733e-01,4.514769611360738288e-01,-6.880961723359104720e-01
7.299701761875081463e-01,-6.906458913556523527e-01,6.883278487644156618e-01
1.850540832727696205e-01,2.705828424253442499e-02,4.531936979419827760e-01
-9.717621759854098151e-01,6.868529771793132621e-01,-6.883286940246471364e-01
8.316885953513644125e-01,6.938625679814289793e-01,4.112233722410085779e-01
-1.543369173338406952e-01,-4.845903304635612585e-02,-3.337804155491391200e-01
-5.073918006073849796e-01,-1.265236023868199222e-01,-6.584605090557430485e-01
-7.820760896245220195e-01,6.894761065294534585e-01,-6.883282205329032122e-01
9.122395973569479288e-01,-1.637617483672457741e-01,6.882995520224944874e-01
1.224323282124184509e-01,-3.366529111076059788e-01,6.745039220594337692e-01
7.379320638963167145e-01,-2.411211520539890962e-01,6.882517204966221991e-01
5.500530568724670832e-01,-3.015218461290829488e-01,6.880531060255218323e-01
-8.271676030398265045e-01,2.188037609131883166e-01,-6.882893147381664578e-01
-8.018889081600399926e-01,-3.175745380078032198e-03,-6.878611407408889988e-01
-2.469398406738010365e-01,4.993995704923799295e-01,-6.875394368744214280e-01
4.748767539122868975e-01,-6.154959353613653761e-01,6.883034645582273292e-01
-1.338247170180328904e-01,-5.814864065017100181e-01,6.728497032400495570e-01
6.258984843026162981e-01,9.751408389658742237e-01,-6.476780452602260985e-01
-3.709875771494803853e-01,-6.068460062552045731e-01,5.694050307796462151e-01
-4.417352643619296693e-01,-2.794292412907806167e-01,-4.614786605253257679e-01
3.104277467591007866e-01,-5.736236518247601612e-01,6.881295401917130183e-01
-8.384349432707693950e-01,9.850938094424819269e-01,-6.883287636627769546e-01
-1.969402737202294862e-01,8.862902631247118190e-01,-6.883015903780399514e-01
3.424633131320140578e-01,-2.854413177966896864e-01,6.857521200928585747e-01
7.089834344130929722e-01,4.955337285183722962e-01,5.426937929278692341e-01
9.138340844598862311e-01,-5.996678287639252147e-01,6.883284122989861142e-01
-7.519242457738606333e-01,9.361078732851335626e-01,-6.883287159949643685e-01
3.602738839570833740e-01,7.473598052000651748e-02,6.134331942690381956e-01
1.793151400663446360e-01,2.819769614651237433e-01,-3.252487586698770139e-01
-9.268427709489606148e-01,2.725033695635443731e-01,-6.883202663219954998e-01
5.105643860779829346e-02,2.878752704563369846e-01,-5.704443757400062820e-01
9.694153359329771291e-02,-6.335182246233728165e-01,6.874036826151022073e-01
1.198688332245547716e-01,-8.605852155677546911e-01,6.882527923898950073e-01
4.296629011224497585e-01,1.284634548777316976e-01,6.237815260580209520e-01
-8.203542639104173251e-01,-8.036811093842717302e-01,-5.725049450811180163e-02
5.458783785730658700e-02,8.373302242661704309e-01,-6.877801928252043062e-01
-4.218235227356734729e-01,-9.818888145402955292e-01,6.832601418108477098e-01
-8.819748578547024209e-01,1.213549929410784323e-02,-6.881486041521952535e-01
-5.344545860907587986e-01,3.318824196682923500e-01,-6.880909335645409852e-01
9.151309213217810878e-01,7.959916952769523490e-01,3.675537696114942188e-01
-4.545838814535041461e-01,5.329704304194837761e-02,-6.798089490418672831e-01
5.737023436837151991e-01,7.463525967247373050e-01,-4.804046291557990123e-01
-6.674508162813508338e-01,3.010503468821217332e-01,-6.882431451354508178e-01
-1.315692747080865477e-01,-1.609847775460739872e-01,1.005139631711861187e-01
1.375357015116176473e-01,7.262305881006581032e-01,-6.845185358524175090e-01
1.672134300822412101e-01,-3.729581186669905790e-02,5.306337511193229828e-01
7.986907720090554719e-01,3.560644697197929975e-01,6.720597615084219489e-01
-7.927696190563875422e-01,-6.435311961228959987e-01,-4.356238227902676230e-01
-9.731140326355252057e-01,3.862623970890661784e-01,-6.883270618164926136e-01
-2.225955019052312522e-01,-1.638046654265921109e-01,-1.967038307140495657e-01
9.335310294163610134e-01,-6.713559868334972869e-02,6.882666981346881041e-01
5.282333598093846838e-01,7.954443200571252870e-01,-5.993425956166245072e-01
-4.836421251344984462e-01,4.571077481601415471e-01,-6.882157575852030362e-01
-3.700298896955733774e-01,9.355621364992046107e-01,-6.883258377714408516e-01
1.188827347108181165e-01,-6.195971850181982710e-01,6.874749354358269393e-01
9.906422457680652549e-01,8.344973612073838254e-01,4.495628824346100672e-01
-1.334106376345256528e-02,-8.713305203234258389e-01,6.880702308617669960e-01
-9.747500710580860872e-01,8.201301387458008740e-01,-6.883287581656295506e-01
8.570325134096485886e-01,-9.459060272862216401e-01,6.883287598741664182e-01
-7.389346500655002981e-01,-4.860700797949111251e-01,-5.866292355916411516e-01
1.932342792754628835e-01,-7.229895620762920583e-01,6.881843457900771455e-01
-4.135830334345991233e-01,-5.120509044848884361e-01,3.139269158358660716e-01
-5.159034080461992744e-01,3.858760016650424340e-01,-6.881619037801023353e-01
-2.432185727276972020e-01,-6.263168523103719298e-01,6.591052404487909300e-01
-7.857729549365282118e-01,-2.741486031124398259e-01,-6.801201204360293184e-01
-4.218873103887310627e-01,8.389863592981439133e-02,-6.796297174261055618e-01
-7.345841060116595767e-01,7.929238297018019743e-01,-6.883284603858510486e-01
1.919576962813085430e-02,-1.195921685558767322e-01,4.133462270561729102e-01
6.742425943036918223e-01,1.265369644389742199e-01,6.825960919416543815e-01
2.590706495126935405e-01,-8.422796895952044949e-02,6.452664932312124346e-01
7.926401771269107055e-01,1.377024247032896387e-01,6.863615899450162816e-01
-5.051429371240159227e-01,-8.624997433063257279e-01,6.507598833345987765e-01
-6.744586551813052111e-01,-5.818264324385655772e-01,-2.978103337002476203e-01
8.055416928941958599e-01,-3.437186857096656833e-01,6.883147311793802459e-01
7.714683964184456677e-01,-6.347502966522513557e-01,6.883277045230148383e-01
-6.887403154568150221e-01,-9.675873095363967114e-01,6.085508853075140001e-01
-6.461105906649911024e-01,-9.522506245615229847e-01,6.267538718002277909e-01
-9.262485889805385231e-01,3.949405216152772624e-01,-6.883262627088644336e-01
-5.711333098915236661e-01,9.653938294886070803e-01,-6.883284879708827519e-01
-2.185893351162770948e-01,7.027024193884900960e-02,-6.157511145653637996e-01
4.536467189382415999e-01,1.074948122938261807e-01,6.464409635671017895e-01
-4.290659111132062442e-01,-7.784061574670353423e-01,6.477166461201391279e-01
2.720579822113482482e-01,-8.175777985508430046e-01,6.883032773192749865e-01
-8.344991094255109765e-01,3.089519642505798025e-01,-6.883138908638815057e-01
-2.898117136814273298e-01,-1.322480551580804686e-01,-4.523499387014875417e-01
6.161577452879720695e-01,-7.737804519092044142e-01,6.883275143298958065e-01
6.774747686407978087e-02,7.527075204678324027e-03,2.012128038131230645e-01
1.480751913036684186e-01,5.323368829269086167e-01,-6.594361663336837376e-01
-9.205905890963161919e-01,-4.646064675186112325e-01,-6.740729892020262959e-01
-5.055251509507441288e-01,-1.827960199616334158e-01,-6.358072005945588634e-01
-9.409476947655048829e-01,4.681606979472103802e-01,-6.883277351629596419e-01
9.770435834836326272e-01,4.478992039469451569e-01,6.814327347316481154e-01
8.546189124314964580e-01,1.734302958122440064e-01,6.868152760605298335e-01
7.340942761004543016e-01,-1.173820229676951765e-01,6.880528341203633325e-01
2.246345743739541767e-01,-6.549818395268611759e-01,6.881205064206998845e-01
-8.713585311039788728e-01,2.476291340375080807e-01,-6.883097642740525490e-01
9.840950224840432359e-01,-5.454526679925719712e-02,6.882863128930559737e-01
-8.088596803347918307e-01,6.247651503344340274e-01,-6.883279623863562957e-01
1.393927119436111361e-02,2.795895843164843964e-01,-5.980347442052388329e-01
-1.179405797816672763e-01,-3.640275003582209568e-01,5.800583390901898895e-01
5.048882212485634735e-01,3.760978180450103014e-01,3.906846964176884374e-01
-2.677589416656205312e-01,-3.449425840432427393e-01,2.531921260307564148e-01
-7.401248729123925951e-01,-8.367211178275619776e-01,3.088035601802684438e-01
-6.409329802315189006e-02,6.563261094020111930e-01,-6.873060492098109764e-01
-3.639226437961644578e-01,3.465597855812452277e-01,-6.871992874228722847e-01
-3.225208527316714147e-02,-1.818060344937384443e-01,4.362741585306677550e-01
-8.986507342797058762e-01,-8.526890502188821941e-02,-6.879249246423260189e-01
-8.132904497075881256e-01,2.879132295133168817e-01,-6.883060631829492904e-01
5.338492842838313823e-01,-5.857178366656072832e-01,6.883098741429922729e-01
-2.347412993654589553e-01,-6.062117893350913445e-01,6.555874471422621363e-01
7.666136961970226871e-02,5.267720979025645178e-01,-6.732200775582901642e-01
-6.248360824285257298e-01,3.394269790669750542e-01,-6.882394380686917001e-01
-6.298302196448806178e-01,-5.886798575408014322e-02,-6.837817105550133556e-01
-8.228922585764306685e-01,3.546961956729979271e-01,-6.883181969383116439e-01
-8.764073113565062911e-01,4.641858777332674713e-02,-6.881935725691360473e-01
-6.650556432651555383e-01,1.743120894736227555e-02,-6.868347767304879836e-01
-9.583501053999068375e-01,2.146925786547111414e-01,-6.883177047477303523e-01
-1.883573364833994734e-01,5.700395138495246705e-01,-6.876290519113820165e-01
3.529724469143835641e-01,7.914862629866765698e-01,-6.713851586235521918e-01
3.981967857718293757e-01,8.774329592871983330e-01,-6.770062632609589182e-01
-6.744615290051021450e-01,-1.530191192557579516e-01,-6.808836001735456556e-01
3.813082345829690301e-01,3.688192978390463228e-01,4.292669224077106521e-02
-5.858550062108467404e-01,8.724439115443525239e-01,-6.883281412141625255e-01
-5.478128163348956470e-01,-6.829432255977609945e-01,4.052091716143487732e-01
3.024811595039313961e-01,-7.194796579581741458e-01,6.882786048549494051e-01
6.162667981567302444e-01,4.579630471674269732e-01,4.537935146372166217e-01
-1.996116510739891492e-01,6.017993160009440512e-01,-6.878735839660653495e-01
3.111891651028164674e-01,-1.132626419644959803e-01,6.688630606108135757e-01
1.957156630723833057e-01,-1.901009249329970174e-01,6.598727275308684526e-01
-8.439360217364000327e-02,-7.520651628573415959e-01,6.865964991947074436e-01
3.877282733559972439e-01,7.725599652845960286e-02,6.292524599207078850e-01
7.652235221394330100e-01,-2.584452195850772682e-02,6.878240006412733587e-01
1.529523601892890383e-02,-4.969073463690261150e-01,6.801671678639595875e-01
2.084380854645044856e-01,-3.909955063320076363e-01,6.849055379615381911e-01
1.155750654521714438e-01,-8.984826164029273698e-01,6.882744786820713667e-01
2.319286440516623582e-01,1.836437303032254498e-01,1.630243816677429958e-01
2.404002568447372035e-01,-7.954677806141998708e-01,6.882851191585628303e-01
-6.384026003391047865e-01,-6.244869055122099777e-01,-4.781572985902475537e-02
4.198751927568216136e-01,-3.804980363927223941e-02,6.743442248920717974e-01
-4.495806902167238661e-01,1.167168745844435751e-01,-6.835653312649582203e-01
7.406854779854166182e-01,5.455612940905052444e-01,5.170477841607079572e-01
-8.822464371819886964e-01,1.276212727333072561e-01,-6.882721552195859571e-01
6.968013512404191978e-02,-2.136615472466567578e-01,6.118625010716091106e-01
-5.587267839999943142e-02,8.332388200794662581e-01,-6.881393697595022951e-01
-9.922397748371019066e-01,6.706403804061427110e-01,-6.883286976241507205e-01
3.081821012652141700e-01,-6.564674464402717735e-01,6.882397826751586178e-01
8.177338704506367240e-01,5.044693990976989451e-01,6.308112046669592798e-01
2.172678392327969110e-01,-8.873221987469279703e-01,6.883068195722008564e-01
1.760608218366117583e-01,-3.903180954662102131e-01,6.835691914815794634e-01
3.231802673112249558e-02,-5.630247164086206180e-01,6.847629646855297736e-01
-4.449265272330571452e-01,1.329868697485472318e-01,-6.840861085288785226e-01
-9.040903257341956767e-01,-2.198800201939306032e-01,-6.868602773405305673e-01
5.942172620521750659e-01,-3.006033666894651901e-01,6.881498791919286040e-01
9.420245217459166653e-01,8.402912049889710300e-01,3.227612299173330257e-01
1.462486818159367541e-01,-3.731606964978428920e-03,4.371508293470205420e-01
-5.530134085623736873e-01,-8.092253097605754952e-01,5.897373478627860877e-01
-2.609043329055498184e-01,-9.548753072697222510e-01,6.869967077908449848e-01
8.448174753557244898e-01,3.299960411783531278e-01,6.803769153101004719e-01
3.854265257369278164e-01,-3.499659137228390282e-01,6.874481790861546315e-01
-6.154581833944792191e-01,-2.148930826776822567e-01,-6.637049617337785756e-01
-4.287917336778075406e-01,7.105814673447745644e-01,-6.883132711515244084e-01
8.191577390330424535e-01,-4.923929508627546969e-01,6.883260079810382681e-01
3.821807269254100525e-01,7.035978900577206652e-01,-6.351403924485083952e-01
-1.343413138982383348e-01,-2.354877545371005798e-01,3.211833472685675650e-01
7.696808057625528221e-01,-3.604113426330244341e-01,6.883117628527841703e-01
-1.886417159430280321e-01,7.308471646792482623e-01,-6.881889850042849366e-01
1.429290984119790942e-02,-9.020599183650586106e-01,6.881845319519136472e-01
8.544852703853655917e-02,-8.749806213962112444e-01,6.882359464944638461e-01
2.667686530291495384e-01,9.615479746125135119e-01,-6.870074218643565933e-01
-6.436065898416978293e-01,-7.828788433811708636e-01,4.144104411915796038e-01
-5.581396276442069926e-01,3.925045780124813977e-01,-6.882264042000675319e-01
9.482574507183523238e-01,8.600467189393530276e-01,2.853242820839069216e-01
8.193258579868694103e-01,-2.133402990564519097e-01,6.882836986081329878e-01
-4.333008678012957304e-01,-7.142873775280178528e-01,6.101437073294612157e-01
-3.545356965192862919e-01,1.987623322921130420e-01,-6.829066590300675310e-01
5.684964854021254954e-01,7.737493066191998281e-01,-5.316690476249399389e-01
-4.840727766374781638e-01,4.690657602334249443e-01,-6.882289260300575862e-01
-6.846383909719180316e-01,-3.242239509888407145e-01,-6.518612494804064683e-01
8.947379486689956973e-01,3.202525970235614583e-01,6.839386180530726556e-01
9.069262806560074441e-01,-7.324464609124550218e-01,6.883286757324672545e-01
-5.471577963076106332e-01,5.650742519397256025e-02,-6.850470366129529642e-01
-4.885704493263876014e-01,1.741897616607286370e-01,-6.865094121843150488e-01
8.461007736273895574e-01,-8.172775114889643255e-01,6.883286980346292605e-01
2.105852582654934579e-01,-4.165974761735089515e-01,6.857334871659586106e-01
3.278508760943481537e-01,1.492679468631334938e-01,4.906616439361398685e-01
1.809866149742063168e-01,5.484068993888064902e-01,-6.542676184351017277e-01
-4.820429209710854757e-01,-3.846617808139414230e-01,-3.109573981553406807e-01
5.370567430793944386e-01,-7.147369756916341910e-01,6.883237411298670505e-01
-8.135490415621806637e-01,4.698075011700120207e-01,-6.883251050577023911e-01
-9.712890160943790097e-01,5.836031316375076550e-01,-6.883285370046592355e-01
-3.029187270993545233e-01,-7.723550186739571721e-01,6.758510465350526797e-01
-8.613804395595809904e-01,9.122988564266940603e-01,-6.883287529541020078e-01
2.566817108533190339e-01,9.753708308311839215e-01,-6.872882125313249935e-01
-1.715285307342195864e-01,-7.247787075766731757e-01,6.829040740438434565e-01
6.806915605530294844e-01,7.525364646176908590e-01,-2.371504568613969355e-01
7.881527138984270042e-01,-4.589742298245669261e-01,6.883235003935161966e-01
-9.773536919560630309e-01,-2.063580649743352868e-01,-6.877118446898126125e-01
2.319259146167684804e-01,-7.589015660687550291e-01,6.882602794971456328e-01
-4.936063436708757468e-01,-8.147364135303838406e-01,6.349933972755528178e-01
-6.392611817147422215e-01,-5.962798184691167069e-01,-1.456905197092876192e-01
-2.834544037773496505e-01,-7.850549117181195857e-01,6.792603459145517553e-01
-4.459409178510584937e-01,-3.854805292557705876e-02,-6.653029241605453725e-01
-3.117799601582535995e-01,9.754367773219017046e-01,-6.883252442229748080e-01
-4.189458259995182399e-01,3.459007078662637014e-01,-6.876727367573951533e-01
9.954052271457884959e-01,3.453170764247981417e-02,6.882363580778908529e-01
-1.470146612227851701e-01,-5.889722521598741434e-01,6.719519027146840795e-01
-8.843164131233405278e-01,7.319397675038912254e-01,-6.883286485551084466e-01
-3.901837205284441890e-01,3.274881466507975070e-01,-6.872775814290680296e-01
-2.000823000566476217e-02,-8.366046514307368120e-02,2.119597119127095419e-01
-2.092714053050885870e-01,-2.437547614834110199e-01,1.175172341418809774e-01
3.063409670787640149e-01,-1.540501676666001796e-01,6.746815084438027021e-01
-8.078814864489451963e-01,9.749913911378895737e-01,-6.883287553502225320e-01
-3.443249173887492631e-01,-5.963792594367680611e-01,5.858634697562749016e-01
9.836508941778694393e-01,-2.270910732854005687e-01,6.883211833061462226e-01
-5.892463388409066027e-01,5.603361852054160597e-01,-6.883147763644874573e-01
8.097570891986032304e-01,5.517800409982995813e-01,5.913408319655822920e-01
5.293321347710993052e-01,9.064255584727010095e-01,-6.573373659240621114e-01
5.083759698818424155e-01,6.617410370959446730e-01,-4.440268863803388255e-01
7.081045988567464811e-01,-8.108261516810082448e-01,6.883284317410331976e-01
2.260820702319479292e-01,9.104572059761177893e-01,-6.868626933073974650e-01
9.888918649511606596e-01,4.933071741245496078e-01,6.787019940498066894e-01
4.257447101273870160e-01,-5.082315149739566884e-01,6.882078372826073709e-01
-3.657624010157118910e-01,2.050775521459651252e-01,-6.837761653629788050e-01
9.336157291433559990e-01,-2.115704352355405327e-01,6.883141469768815357e-01
-5.005134698168367535e-01,9.999953434014763332e-01,-6.883283612481604363e-01
-7.272183710621669128e-01,9.627369147972619778e-01,-6.883287172185744707e-01
7.464998648594900477e-01,7.956971389600198119e-01,-1.659850468315723360e-01
9.546576133218007687e-01,2.359417840973134783e-01,6.872884902120141026e-01
8.594894771163088532e-01,-6.146272811735942199e-02,6.881910155644892502e-01
8.187669219968098933e-01,-8.292263933386399000e-01,6.883286843636796659e-01
1.915102675903019858e-01,7.358183105440654348e-01,-6.823988256896963422e-01
-3.970295216001551442e-01,7.676205239309765727e-01,-6.883167351103810505e-01
8.622577974122387356e-01,8.875596381944172997e-02,6.877271075532855882e-01
-5.445546545110366843e-01,-9.878288543427262702e-01,6.721635936345771167e-01
3.141547807183258101e-01,6.871518036588608602e-01,-6.560718366399753698e-01
-7.446176488436158092e-01,-4.142216038602044570e-01,-6.395461318810935492e-01
-6.811254015342995682e-01,-1.690764547681040675e-01,-6.801546935928698412e-01
-8.484640353861132578e-01,4.600897088964066572e-01,-6.883259236408095783e-01
-5.089532565701859745e-02,-8.584829903496002945e-01,6.879008408695826970e-01
6.335320082898485694e-01,9.917002885137427004e-01,-6.510552907402973322e-01
-3.796199562358886226e-01,3.367251721247417340e-01,-6.872635527015866774e-01
-9.698077050824220890e-01,2.312160149044497626e-01,-6.883204079574134493e-01
-1.157995518688128556e-01,7.112217076590772180e-01,-6.879764036411812889e-01
3.591856310471699398e-01,-3.394435925112246899e-01,6.870572799788184915e-01
8.680252369664409606e-02,9.026026310187373891e-01,-6.879345710878385090e-01
2.039877810800705404e-01,-3.184028454979981326e-02,5.693720365925315496e-01
8.649500055123473530e-01,6.174058183648574172e-01,5.815031421538477963e-01
5.806347150557800152e-01,-6.835514309781478559e-01,6.883243284519252603e-01
5.328439472882551264e-01,-9.541620133037986839e-01,6.883283006757096034e-01
1.594691480590890720e-01,-5.109358369804632982e-01,6.866431513040267554e-01
-9.546900341929562828e-01,-6.547161157657912511e-01,-6.230233705891570217e-01
-2.728607317249605035e-01,9.877599639399925469e-01,-6.883241668628231613e-01
-8.223841111507601553e-02,-8.801733915024265720e-01,6.878574887072076427e-01
-3.382746232982234424e-01,2.340681629678493803e-01,-6.838438507973869651e-01
-1.448899528047513652e-01,-1.229168535446891752e-01,-7.532077532837280764e-02
6.980211047925528600e-01,1.364530079083987602e-01,6.833354698475098132e-01
-4.848087965641834085e-01,6.024525757911716184e-01,-6.883026645412863020e-01
-3.070542975422907439e-01,-2.803355434993242135e-01,-9.141325639168131068e-02
-8.007327986967460731e-04,-1.612658773242414689e-01,4.579692085435279059e-01
-6.539723639826506840e-01,5.275671305248534892e-01,-6.883186069326200363e-01
4.968825367884099897e-02,7.990474330048062956e-01,-6.875629038456412268e-01
1.802179329702322530e-01,-4.452182458042290847e-01,6.856878484917091621e-01
-9.833126058479457754e-01,2.987485969982590639e-01,-6.883250571421486441e-01
-6.517187316189461121e-01,3.485762709839446138e-01,-6.882664670030169685e-01
-5.803886767205144182e-01,-3.757535122902111446e-01,-5.308094928542892443e-01
6.396670639582511253e-01,2.432962202505504212e-01,6.626698696732405969e-01
8.048807341087682587e-01,-9.898989095276644612e-01,6.883287581434255342e-01
8.510215567452508179e-01,4.247462465525786435e-02,6.879049250679686311e-01
1.952927802970778615e-01,-7.879866459785223043e-03,5.287578106002069900e-01
7.711732455597184455e-01,1.867455225972738386e-01,6.843529073707004251e-01
-6.003339028320819892e-01,-2.216848934108126556e-01,-6.578051270761141600e-01
4.391796268730641106e-01,-4.889458811887725798e-01,6.882005508355673040e-01
-6.081507771261016604e-01,-6.900501549547892743e-01,2.671028243339469976e-01
-3.836469245591846988e-01,-9.166765686781390698e-01,6.816942597461198572e-01
3.664883122807485183e-01,9.856277391092875817e-01,-6.855165590277734200e-01
-2.256913845830439413e-01,-9.672233818251287918e-01,6.875005863295192698e-01
9.170262560072621749e-01,-2.210467586046813704e-01,6.883130681902714931e-01
9.698065990306976580e-01,5.329386671821609855e-01,6.711074960457911187e-01
-4.332186797761481412e-01,7.822180335964381559e-01,-6.883215317181827775e-01
-6.124232823747814969e-01,-8.438596042297730193e-01,5.645116886311574156e-01
-2.037235108736841216e-01,-2.700268193562616048e-02,-4.874884165317685536e-01
6.291838779557699102e-01,2.265763396250330963e-01,6.641940591136996641e-01
-6.939069550902092764e-01,-3.647211666395868690e-01,-6.389734447859231059e-01
-9.667781655168408150e-01,-4.842619713528573122e-01,-6.773687107864946322e-01
-9.409415986000977394e-01,3.128576035452548254e-01,-6.883238411812793167e-01
-4.507380537497662765e-02,3.062076266078062048e-01,-6.484747978705460714e-01
2.491082580010997027e-01,4.041845848152934018e-01,-4.474466700199282165e-01
8.828331714565607058e-01,1.035425119567177088e-01,6.877609344352069165e-01
-6.218618362490107021e-01,-2.790093509116144954e-01,-6.450799978490318054e-01
7.289739960507062300e-01,3.547347763897770179e-01,6.564608346788343152e-01
-8.776172286951466894e-01,3.651564137002600852e-01,-6.883232654707446274e-01
-2.160466618955416696e-01,-5.294284397809330134e-01,6.308758227841900768e-01
1.071146952733266211e-01,-5.301068188994213504e-01,6.859809496924972327e-01
-9.329918012394706750e-01,9.903779440576634396e-01,-6.883287741277638316e-01
6.946428000412283588e-01,1.960345463514070463e-01,6.789867639708094815e-01
9.890473595842543819e-01,-9.924719554902083907e-01,6.883287768200128109e-01
9.297448814082340807e-01,-3.553406819143092310e-01,6.883251680558865049e-01
7.055687453946675181e-01,6.649174821299368432e-01,1.380118195824287519e-01
7.083268997232261555e-02,1.983721841022785259e-01,-3.877560783337070105e-01
-2.604014752475933836e-01,6.431944111865290914e-01,-6.881649073292289698e-01
7.094016947683257079e-01,-8.650914487348617676e-01,6.883285802983997170e-01
-9.070616237363049450e-03,-6.222851053126836618e-01,6.853452736052587646e-01
3.252738868608548994e-01,-6.869360296545377054e-01,6.882734660302376462e-01
8.379823846036880131e-01,-8.604981314896602562e-01,6.883287223681171518e-01
-8.330905745191923284e-01,8.638851514580605517e-01,-6.883287214907802820e-01
9.911826525809108723e-02,3.233636172528686625e-01,-5.561663511173874364e-01
3.592004528385612794e-01,3.422989651086436602e-01,5.803082537252184786e-02
6.008712739854185081e-01,-7.288698247026417221e-01,6.883264690576970102e-01
-8.992904269332142597e-01,-1.334012879260275675e-01,-6.876795379581936984e-01
-3.182294006111243689e-01,4.507743737904856829e-03,-6.358112486179979816e-01
-4.589081869994737772e-02,-9.784326330050416853e-01,6.882060901176683121e-01
3.183115348304408343e-01,9.341592833762759618e-01,-6.854226480226284224e-01
5.011421211338502602e-01,4.235456613075851973e-01,2.544197278681903929e-01
4.875361506981270576e-01,-9.509376757685825687e-01,6.883280010975696417e-01
-9.779134186989126842e-01,1.959637932439597385e-01,-6.883177967904151595e-01
7.477750512043148667e-01,-1.440523425530995105e-01,6.881444440427982867e-01
5.101092364684058911e-01,4.022807027464918583e-01,3.388909136308567716e-01
-3.309075967791654804e-01,4.301610706411300722e-01,-6.876474906979166413e-01
-3.873173340244417950e-01,8.755366489847367095e-01,-6.883242687503533519e-01
-6.772495285083779404e-01,4.511457998587675711e-02,-6.873257317757274221e-01
1.018757378820100978e-01,1.963194046401881554e-01,-3.028577412132634761e-01
-8.459930817359291311e-01,-7.862627114971263431e-01,-1.996693027614185600e-01
6.048900268809678238e-01,-4.079407779860819705e-01,6.882738083920263428e-01
7.371636805194896613e-01,6.435376288814935730e-01,3.005844787402067730e-01
-4.504275018783736595e-01,2.597750296556693428e-01,-6.871961241730741854e-01
-5.372003432972531911e-01,9.816667356397184019e-01,-6.883284315190719704e-01
-1.538752497799313890e-01,-2.265391369759952589e-01,2.396310139862746491e-01
3.344051582262810296e-01,8.374970919468327502e-01,-6.793937200017063915e-01
7.242339032744462557e-01,4.968209274936576936e-01,5.599027271126012506e-01
8.507893231811194390e-01,8.424213501383519542e-01,2.878278987661292421e-02
5.266397815118462056e-02,-2.781496971974373178e-01,6.397422628925812926e-01
7.229768764935875502e-01,8.368041839567397222e-01,-3.542999382767033634e-01
8.363275414747943781e-01,-7.911867011809492478e-01,6.883286625755222765e-01
3.120634002129525353e-01,-5.523049377788147307e-01,6.880862055925690557e-01
-2.457752246070363800e-01,-9.654679714987255412e-01,6.872985959412870605e-01
-6.728780445659252596e-01,-3.967352947949573938e-01,-6.064940555456770355e-01
5.850633460973153621e-01,5.949964690314633042e-01,-3.415819088439857321e-02
-5.438982728624059959e-01,-3.137734745372611211e-01,-5.630258822242752981e-01
-2.287859684227144808e-01,3.441460112509220348e-01,-6.838701126793307328e-01
3.217958939947274111e-01,-4.351567295980312000e-01,6.876188781699288377e-01
-6.248100154966911290e-01,5.527995710266624396e-01,-6.883181991745490613e-01
5.465732280644619578e-01,4.736723842377388305e-01,2.403473993628211236e-01
-4.052912686610388171e-01,-4.166300636908726318e-01,3.898233794239563954e-02
-5.720655929594660183e-01,8.778399690625569018e-01,-6.883280852638111735e-01
-2.974780489446278153e-01,-5.107916839208741511e-01,5.425164948264876719e-01
4.114905054422934860e-01,7.503212514456296667e-01,-6.433631649912118222e-01
4.887209814452231349e-02,-8.676025461904193214e-01,6.881847075442248940e-01
8.920921912834760548e-01,7.500849556681938868e-01,4.203620547544418828e-01
3.993795301826046362e-01,-5.823279216973875627e-01,6.882537388282216062e-01
-6.809114985819626487e-01,-1.224659813327588775e-01,-6.831776824695006134e-01
-9.934863487439304919e-01,9.341330249934574059e-01,-6.883287743817984028e-01
-6.100432270183251404e-01,-6.919900797441953522e-01,2.672415998420863970e-01
6.225533749799281313e-01,8.767323588283504332e-01,-5.878603235025465779e-01
8.329097725089351645e-01,-9.840945910013179088e-01,6.883287625455907222e-01
-6.314140163791130966e-01,7.745915622633305908e-01,-6.883277022280778201e-01
-9.213959846899570927e-01,-8.031295649923857471e-01,-3.654013914913508687e-01
2.436314625461881711e-01,4.288261762136045263e-01,-5.015928323653072729e-01
-4.140498630839535288e-01,-3.826992127328427973e-01,-1.070226353259525753e-01
-7.641997699820963774e-01,3.678176753876185590e-01,-6.883120873501348269e-01
-6.572311252112623681e-01,-3.559926667231616548e-02,-6.855856474860346772e-01
6.340237638738486226e-01,5.553929548343492506e-01,2.574873549891031899e-01
6.409041952202887416e-02,-8.080319677974092674e-01,6.881043012441286910e-01
6.683104959732064643e-01,4.262133623361623602e-01,5.760108103526729861e-01
-4.943404282509189507e-01,1.921876111992402159e-01,-6.868938868600994452e-01
4.303003399654405925e-01,-6.797397122968302785e-01,6.883079843837962564e-01
9.627036906156605234e-02,-1.234629667047184576e-01,5.506765013936730790e-01
9.174838931708857448e-01,-2.274308116887668874e-03,6.881893609571106962e-01
-6.214020154362867032e-01,5.750045012398730115e-02,-6.867803158895297022e-01
8.097736895632214882e-01,3.619775120558312853e-01,6.728702731496011280e-01
8.686628160414391342e-01,7.047265929476700386e-01,4.645505296098723647e-01
-6.605049628371273407e-02,9.963741393759759646e-01,-6.882953019027434616e-01
2.366905285947051851e-02,-9.325569315403523518e-01,6.882319616565522047e-01
1.943667195760034883e-01,-5.249096652554718911e-01,6.872943009327164843e-01
5.269955815769113983e-01,-7.651309248524154061e-01,6.883254136394856282e-01
-6.214289512145803052e-01,2.747100937534552312e-01,-6.881522220713999216e-01
-5.927979558592226805e-01,1.969107401649541345e-01,-6.878170946481176884e-01
3.669048759330695297e-02,2.389970033162902574e-02,4.396141569054323045e-02
6.962659720102519767e-01,-7.096613584633055805e-01,6.883277013842288294e-01
-8.494804831541418189e-01,-1.712835957062290859e-01,-6.867693640486408624e-01
3.318183116965971458e-01,-2.602144248116071701e-01,6.846432821096334331e-01
-4.212206641943720964e-01,-4.599244545281300223e-01,1.315663810116144139e-01
4.746651204900926846e-01,-5.244068334002818244e-01,6.882657002373745447e-01
-4.357502541481110825e-01,7.686395949562723207e-01,-6.883206850869431070e-01
6.517101174477548664e-01,-2.082184184665816229e-01,6.880751951296606439e-01
2.167777399629979840e-01,2.436115410645884882e-01,-9.180219422728566614e-02
-3.916810146962963479e-01,8.451655638666923931e-01,-6.883229287277148334e-01
-3.733195592260079021e-01,3.365869574942819131e-01,-6.871927691468476818e-01
-3.814389972929803641e-01,-7.486806777894470244e-01,6.542082386425506213e-01
9.786268120909131785e-01,2.694571466893684875e-01,6.871843745026481320e-01
4.549241605357503548e-01,6.606693695739411787e-01,-5.323513421145764646e-01
-2.688930582004576131e-01,-6.083920201766919167e-01,6.436529123726050239e-01
-5.813564082196645000e-01,-5.768265469376963051e-01,-1.558750412850807253e-02
6.824261354921650202e-01,-5.063703960957040007e-01,6.883193190557399532e-01
-3.537393685885590333e-01,8.232627947904247456e-01,-6.883181347076499090e-01
7.355032167140422850e-01,-2.067036146780221184e-01,6.882173922077936545e-01
-9.539044557208327113e-01,-4.135482716871208275e-01,-6.821608611519243137e-01
3.070062839290954582e-01,4.346228722884084572e-01,-3.879371696752296761e-01
1.591995710004157072e-01,3.425115392225186461e-01,-4.985330641822530162e-01
-2.461956452691460573e-01,3.732241442835770862e-02,-6.119897791497379558e-01
-7.296213044566699502e-01,8.329970739912662125e-02,-6.879230598606373981e-01
6.735351539106657626e-01,5.467490741248104413e-02,6.855087129951558111e-01
-5.215117641519515512e-01,8.348910675600518250e-01,-6.883270099504222861e-01
7.841862598682463048e-01,-9.548870846158019621e-01,6.883287416744375831e-01
-8.648835232841185494e-01,9.530646231354147346e-01,-6.883287627117408158e-01
9.016452097770641938e-01,-3.023608644598128059e-01,6.883206539602986229e-01
3.721304781076031354e-01,-2.011058454289675890e-01,6.838836179828354789e-01
-7.477515983825244739e-02,-8.320192126165044666e-01,6.876209429578231669e-01
-3.823971990989858405e-01,4.258643353603250858e-01,-6.879037140415771301e-01
9.748328723914025939e-01,2.320516149823534935e-01,6.875108621594216984e-01
3.519240892299806411e-01,-4.143395355007257752e-01,6.876819635908218986e-01
3.712988038517264222e-01,-5.980794886895737239e-01,6.882438929353565937e-01
-4.669537238288146153e-01,-7.738128412890850072e-01,6.271754604699057989e-01
8.673836514414579035e-02,-4.091262204429590987e-02,3.880179458040018403e-01
-2.792390805187627834e-02,-1.676398986932170487e-02,-3.836865114217317962e-02
5.936283166984019921e-01,8.206820106662933156e-01,-5.594837481753202058e-01
8.421743801043897193e-01,9.786602088906930508e-01,-4.082452696760329180e-01
9.717564150805071410e-01,7.581103255192622736e-01,5.429493423794448104e-01
-4.369014023795774193e-01,-5.704786920277158391e-01,4.017003285320939199e-01
7.751459187130211870e-01,9.502004183068299970e-01,-4.846130989310902248e-01
5.060169777557206316e-01,-5.865851072898364826e-02,6.834877083496325723e-01
-4.670549203229257262e-01,-6.281401291020598521e-01,4.591561198200350691e-01
-8.945834474177074558e-01,1.115172842473837189e-01,-6.882699815754110828e-01
4.058919319725680097e-01,3.743343936424436968e-01,1.077173449342409828e-01
-3.355021103284410167e-01,7.952943689882523426e-01,-6.883118822888807387e-01
6.568488602085005290e-01,4.213853385398469431e-01,5.689752607702254217e-01
-4.599392360802467827e-02,5.997572093097591761e-02,-3.340219086967023410e-01
-8.154658103762217891e-01,8.841188800851540464e-01,-6.883287230035372017e-01
8.358871768503399746e-01,2.966728397653020100e-01,6.820903503100554932e-01
-7.647272764049501959e-01,-1.509308832994691318e-01,-6.853625470370106054e-01
-5.436128088885192611e-01,3.715244403737023582e-01,-6.881827679866775460e-01
-4.103967552786866868e-01,-2.230136797750408295e-01,-5.050969059527847804e-01
-2.318535387185716168e-02,-1.883713600355942930e-01,4.668827902043570788e-01
1.654491434982063858e-01,-8.108192830382285887e-01,6.882495445110555776e-01
-4.747931371883740148e-01,2.923323863544697865e-01,-6.876875119539198611e-01
6.486948209495910778e-01,3.867652402121537492e-01,5.948442986766543372e-01
-8.894283269479057452e-01,-5.304528227380236327e-01,-6.513469099830271336e-01
8.107973809951003474e-01,-6.701523518331695684e-01,6.883282707351247032e-01
7.482910960937982914e-02,-9.442390145788626121e-02,4.743364543602835992e-01
5.129056047520048622e-01,-3.226924630393381843e-01,6.880053597043119806e-01
-3.223935737986849404e-02,-6.845540306539088515e-01,6.863093829574595794e-01
5.329752345895972798e-01,4.674371998388548999e-01,2.178173547550543154e-01
4.810204677227407633e-01,-5.319800523129183389e-01,6.882739016047402236e-01
-8.848382280051594329e-01,2.108867680849262349e-01,-6.883047838850679945e-01
4.361940986700985068e-01,-4.962276882269440748e-01,6.882059427806376251e-01
-4.174862037765649792e-01,-1.056446884204036429e-01,-6.300218165007347437e-01
9.683240238716450676e-01,-1.628975966689054644e-01,6.883119539756382688e-01
4.536264480793685827e-01,3.813562467886166818e-01,2.384394862315169783e-01
1.581192472230141810e-01,-7.448230523211361032e-01,6.881638328983962216e-01
7.341133601192351144e-01,-1.258233701050985864e-01,6.880752159045316896e-01
8.497189197974650554e-01,5.432839747255167051e-01,6.269271081807378243e-01
6.206540658573889147e-01,-7.081421381362369427e-01,6.883264471160571718e-01
-4.407368045239221654e-01,-3.778722475218376786e-02,-6.642750289334264924e-01
-2.938930063112819013e-01,-2.871462772042236988e-01,-2.321103535103681906e-02
4.561009969286511367e-01,4.406296302282752819e-02,6.663313522202167771e-01
-7.595474522159448849e-01,9.872381393853870701e-01,-6.883287445364266732e-01
8.228495294168456375e-01,3.106310090554396108e-01,6.801684608458942183e-01
8.380154215726940414e-01,1.588464101670350459e-01,6.867844331371731892e-01
-7.931427893258438111e-01,4.154812776314664724e-01,-6.883210206958060295e-01
1.948500052611683575e-01,9.096506817904690401e-01,-6.872469861013096315e-01
-1.642321188119306719e-01,-2.079611267639001060e-01,1.481464177938511262e-01
5.707095883272281789e-01,5.540090866832847460e-02,6.804153439972401296e-01
-7.731316004369870321e-01,6.775956096344608603e-01,-6.883280909506184209e-01
-8.457976703949301456e-01,3.356617870553266769e-01,-6.883185987870102940e-01
-5.609522410903813316e-01,-5.466009170198946610e-01,-4.930754760276507415e-02
5.398358064027768410e-01,-9.484827347759663407e-01,6.883283069291591394e-01
-1.499801231117154909e-01,-7.299079104065298029e-01,6.841704618897607171e-01
2.375526708020103683e-02,7.703598849992532305e-01,-6.875415262973182395e-01
8.540194290969804758e-01,-2.442585181684737705e-01,6.883053887360912615e-01
6.712411588690849751e-01,-8.119014136582052288e-01,6.883282817859963654e-01
-6.054906620377558113e-01,7.700220468849883204e-02,-6.868348664873241693e-01
4.472217378791907283e-01,2.301769020074773131e-01,5.473097578735278690e-01
-6.507356813094673509e-01,8.692539145019773095e-02,-6.874679194397310678e-01
-2.912721580391877119e-01,-2.110823380851631903e-01,-2.620885866323904856e-01
-7.737974576906418989e-01,-5.104288644402148467e-01,-5.960904303471001864e-01
-8.380974500395965698e-01,6.792821671213666868e-01,-6.883284262933103692e-01
-9.986626425831190978e-02,-1.558474565247736088e-01,1.877885110371926292e-01
9.329108851002243519e-02,-5.235108769918332960e-01,6.854501892334049495e-01
1.122293943760186430e-01,6.708091788786816334e-01,-6.831845682391055607e-01
2.980614385050046611e-01,9.074081063706875838e-01,-6.852278812027922106e-01
-1.460980655236434611e-01,3.928479778731452932e-01,-6.820736666750295552e-01
-4.644904401901950308e-02,3.878734861843946558e-01,-6.706692139404086817e-01
-2.484359954418362548e-01,-5.542604224089326959e-01,6.265679623177528024e-01
5.951206498017083124e-01,-3.168408742570540948e-01,6.881780571407801750e-01
1.754680342256866865e-01,6.558348190773861663e-01,-6.771325207098227716e-01
-6.882210694045640675e-01,2.369314643640563212e-02,-6.872153311381364871e-01
-8.452392588243735627e-01,-3.970946352662334533e-01,-6.729234422548986405e-01
-2.451592858549433984e-01,3.954333624998165320e-01,-6.860586506332903012e-01
3.508848597330835872e-01,6.480051287323300713e-01,-6.212250853636472891e-01
6.394788247494749278e-01,4.220481835922034186e-01,5.477973371457838248e-01
3.850760338720902176e-01,-9.016949261691267203e-01,6.883252284250928055e-01
4.690232672632899114e-01,7.721467810050406388e-01,-6.249549619251189014e-01
4.994270624525618540e-01,-4.116360741092894848e-01,6.881766971129362753e-01
1.790677847847912396e-01,-2.892749990128427040e-01,6.757151098438006764e-01
5.376731883658303346e-02,3.617946483860476903e-01,-6.278545044607840575e-01
5.413909753836798622e-01,-4.463676717723397136e-01,6.882581448445013184e-01
6.454964326859553569e-01,5.240920950277867529e-01,3.730929158122167633e-01
-6.899559438919511400e-02,-6.910029277828211303e-01,6.855959075391154789e-01
-2.011766437580431166e-02,-5.179751837367239098e-01,6.789168476233258254e-01
5.846092243528255850e-02,-5.336000853176285919e-01,6.846443211103330206e-01
-2.368639294455410216e-02,-5.582745652857961094e-01,6.817963721781059583e-01
-6.737804311144586222e-01,5.970083682546512005e-01,-6.883246128930800012e-01
1.415227450372857909e-02,9.884123602599175218e-01,-6.882479371950113167e-01
5.726734366138130916e-02,3.002457941836815802e-01,-5.769165801088778078e-01
-8.891158481837941885e-01,7.937465311349798380e-01,-6.883287125866587308e-01
3.673440816945632292e-01,-2.775267553560283318e-01,6.861535726556234893e-01
3.933227784131352323e-01,9.795175035617642578e-01,-6.844223464755044839e-01
6.991483867708039313e-01,-2.007295251122076518e-01,6.881587006629031888e-01
-4.215668816960969068e-01,9.639347266678892634e-01,-6.883274569025236156e-01
-9.157719739247429658e-01,-3.889998617913947854e-01,-6.812680353116119525e-01
-1.612463781583359790e-01,2.485997205073171568e-01,-6.658518189893198880e-01
8.767185469717975188e-02,5.133839626973455417e-01,-6.691034432600533322e-01
-4.613919501005909751e-01,-5.281968430746963872e-01,2.217329253752271800e-01
-7.913950281928214814e-01,-1.490518530406950148e-01,-6.860979802231548241e-01
7.639899635299807201e-01,-9.022247515528836193e-01,6.883287003333867782e-01
5.323029295815833173e-01,2.076270637313639700e-01,6.367818543880864324e-01
1.461468738042899229e-01,3.721683075358945825e-01,-5.582731439159229758e-01
9.585297735174698186e-01,-5.666336503906490574e-01,6.883284527983902779e-01
-5.892606264113928738e-01,9.539942961794494192e-01,-6.883285069868255723e-01
-6.639805756440511075e-01,-9.709132438240453133e-01,6.272184267518567946e-01
-1.736161595799943225e-01,-2.517052432704613985e-01,2.558822013504589710e-01
1.222054745588050384e-01,-3.750251649295699430e-01,6.788580679664983908e-01
3.743385840622313054e-01,3.622088962317404626e-01,4.169495741772344388e-02
7.326891542811584390e-01,8.864827033715436677e-01,-4.448867226674858566e-01
4.574262253296041969e-01,-2.939214427311904743e-01,6.875779745690916434e-01
1.514813436028035198e-01,9.255029290191685298e-02,1.971469006273489644e-01
-7.472970622384693673e-01,-9.552573071584460340e-01,5.353887056821390322e-01
4.245098536577951442e-01,5.384856072190393750e-01,-3.546753350588522924e-01
3.317098594011445023e-01,6.419176382962827887e-01,-6.291027287167655357e-01
9.470895657484743602e-01,6.117955507132422088e-01,6.417991079472633587e-01
-7.518109907137096037e-01,-8.703713776918400313e-01,3.661274444857037791e-01
7.363028807263121145e-01,-2.699888338297253831e-01,6.882700937588414059e-01
6.474789875158353247e-01,-9.016339472903021068e-01,6.883285225338271474e-01
-9.346727069402940291e-01,-7.916261683773269109e-01,-4.225978272520602985e-01
4.639070549345254424e-01,-4.365117758654273317e-01,6.881596180590052736e-01
9.528909628997974668e-01,-8.214683416235568636e-01,6.883287531389749025e-01
9.299892909110591965e-01,-5.829555078327954831e-01,6.883284102434497065e-01
4.115834055771725453e-01,-9.415770696682419505e-01,6.883269516109348229e-01
-1.084073518473593900e-01,-7.798189362174159367e-01,6.866600132571890613e-01
-6.444613394129152795e-01,9.110156815355248128e-01,-6.883285384230871662e-01
1.216532892611941197e-01,-2.570368728453638063e-01,6.578174074511894398e-01
1.175136727759238386e-01,7.917586390046567058e-01,-6.867065772982822169e-01
6.411523246351777949e-01,-2.436552357117884871e-01,6.881310408713915416e-01
-4.266338110540845996e-01,-8.604618868982694124e-01,6.705828075908558672e-01
-3.751627314467254060e-01,-6.666015942890766155e-01,6.175040879522576409e-01
3.623552244980163817e-01,-1.445834603630560267e-01,6.797287962851585874e-01
4.201782767191684087e-01,1.726878079651668063e-01,5.814501980778050694e-01
8.329626313987021913e-01,6.881574665536969171e-01,4.263486433672693532e-01
3.427414276136730997e-02,-9.030927334508835891e-01,6.882118689517022769e-01
-7.132625298716532836e-01,-5.349396574377518476e-02,-6.864542360082530603e-01
-4.474711184385282703e-01,9.466534637590073853e-01,-6.883275662314675136e-01
-5.974525106497905469e-01,-1.866980833161180353e-01,-6.660517704056371224e-01
4.747343413897515685e-01,-9.988410261890530162e-01,6.883282317428207620e-01
-4.046505953954788737e-01,-6.950039949993203070e-01,6.167713024060386129e-01
7.954852365955391580e-01,-9.076261464268364776e-02,6.881338680812820741e-01
2.079892310221997942e-01,-3.120855734406300375e-01,6.807816420978103356e-01
5.747957844941153915e-02,-7.193975373621950276e-01,6.877470683611915936e-01
-8.101069198503227931e-01,9.405107668928152087e-01,-6.883287458784931312e-01
-8.044283418839226485e-03,-4.419498421635565943e-01,6.705963753164169150e-01
3.931310552020557125e-01,-4.938067207607559350e-01,6.881352080117553172e-01
-2.017930974136505906e-01,-6.367759957660741321e-01,6.707839665394917938e-01
4.247069097000373272e-01,-8.457676694144176111e-01,6.883245997778976166e-01
-3.224788273502723346e-01,-7.982497744694949660e-01,6.766104335828533323e-01
6.972482041060910074e-01,-6.915649028068484583e-01,6.883275000069286609e-01
-9.197441834172312980e-01,-6.539234592012754810e-01,-5.981784165684426169e-01
-8.625009577743507627e-01,-8.113509782865031550e-01,-1.722997008047753853e-01
4.730100636561074268e-01,3.211773897688738888e-01,4.409323375813631873e-01
-5.493984190030816173e-01,-8.043509660028476116e-01,5.885784157319962073e-01
-7.737073095230120323e-01,-1.116855575366499931e-01,-6.864959451213135111e-01
5.188772584332035365e-03,6.400276551808161685e-01,-6.859244366654652092e-01
-2.676523916334807573e-01,1.739867160522359235e-01,-6.719002853786503193e-01
7.942654682778385045e-01,3.071858032070198252e-01,6.778539095428230965e-01
4.969314601707321977e-01,-4.996678361188651163e-01,6.882641211156338423e-01
1.434972552259394796e-02,7.184613558736230310e-02,-1.926051645622881558e-01
7.601468256891124042e-01,-8.788582143407905889e-01,6.883286753475080788e-01
-7.675992711220804843e-01,2.155367302125656970e-01,-6.882548031538919808e-01
-2.969019393865695022e-01,-2.399350814573752988e-01,-1.909240913842432108e-01
6.800673918067194901e-01,2.522501363591267420e-01,6.694984566542189208e-01
1.773560709580939143e-01,1.495989871129250748e-01,9.492134040588287580e-02
-9.561396636393793003e-01,-1.086684704537210777e-02,-6.882207552613901491e-01
-4.701534222719883083e-01,-7.387435873602932190e-02,-6.626467486020719555e-01
4.469166752179307700e-01,5.331110350513064144e-01,-2.795531257369999745e-01
3.577968745238502279e-01,6.678058486962752394e-01,-6.289899476522433641e-01
-1.294887697300735052e-01,2.952472312179388325e-02,-4.551712905068493464e-01
4.811537634402067720e-01,-4.567839413500607293e-02,6.812722519692155920e-01
-7.443465132938273943e-01,-5.914127731748770600e-01,-4.431589369041245563e-01
1.746601605138999869e-01,-2.315426805226796780e-01,6.650319388341667803e-01
6.702553154559112158e-01,1.323317479227450466e-01,6.820096766389559528e-01
8.139394455410788876e-01,5.693135432334912593e-01,5.785918951147139833e-01
-6.217223201290948964e-01,-2.864372561417694030e-02,-6.846815247368541746e-01
6.873099995992575373e-01,-6.466273026955102754e-01,6.883265640325775259e-01
2.663275388461159299e-01,5.067556583841319462e-01,-5.742770846512259553e-01
9.187789752245889563e-01,-9.805053736026470013e-01,6.883287724649598260e-01
2.045183180879599494e-01,-2.120091014114500183e-01,6.672822982996741148e-01
-5.401630596798940864e-01,-5.537823856588739435e-01,4.680055213815868115e-02
6.683324115364845941e-01,-4.542292463275976466e-01,6.883104318926179799e-01
9.217267804600568493e-01,2.410039221071791360e-02,6.881548283354488316e-01
8.749730631501686506e-01,9.986185771756699303e-01,-3.785070092244503526e-01
8.938628874240981403e-01,3.966397124293303822e-01,6.788573658633402230e-01
-6.685864660050353514e-01,-1.123806918532355148e-01,-6.830614558126002489e-01
-9.631510538714496139e-01,2.292199943096393522e-01,-6.883196512719319538e-01
5.144755185130709396e-01,-1.077906753902551085e-01,6.856029587296172956e-01
2.019472540511697556e-01,-8.847406410665437093e-01,6.883025143463382678e-01
7.265400156023105183e-02,-1.451510849971193728e-01,5.482691304204576621e-01
2.092321613161434168e-01,-7.995234935794222064e-01,6.882715220302857428e-01
-2.098299296221433075e-01,2.325483727723831606e-02,-5.663566588904171972e-01
7.157539002497388392e-01,-5.277236690773636774e-01,6.883233041541791941e-01
5.482813276896201238e-01,-5.134356582637833455e-01,6.882950641590321883e-01
5.581579147977040467e-01,-7.181898248220406344e-01,6.883248382311506486e-01
-9.187557410795050838e-01,-2.848871362629126214e-01,-6.859010356507486694e-01
7.524469427493520879e-01,6.574807134023901156e-01,3.043063781759150488e-01
-4.299184749133380112e-01,-8.055015361183153200e-01,6.568765058676352409e-01
6.515920427236303603e-01,-3.081913729845993100e-01,6.882353451378268039e-01
-8.610206229013399604e-01,1.192358806173732244e-01,-6.882526421394460359e-01
-4.103225236298166934e-01,4.043608760252725975e-01,-6.879301455345502303e-01
9.005767587345976377e-01,-7.985305223784255890e-01,6.883287227296628341e-01
9.649678956465836954e-01,7.063857749845512402e-01,5.918849191168774615e-01
-7.395127353004133930e-01,2.717358145802140079e-01,-6.882729317152685988e-01
-7.639554311348157878e-01,-1.089835133396725997e-01,-6.863622609681773179e-01
6.895350555405972415e-01,-4.188902825705216326e-01,6.883076458697615641e-01
9.517853324596445841e-01,9.703281554509040063e-01,-6.363556293255173690e-02
-4.895899616241379260e-01,-6.315740271650187587e-01,4.203120485886731594e-01
7.102533812666402824e-01,-2.128695253017720557e-01,6.881939735109248168e-01
-1.703034168495878298e-01,2.150481607924581429e-01,-6.597428498629869242e-01
2.721379845026479227e-01,5.741232610102648959e-01,-6.242632575875729506e-01
-3.898439471805013046e-01,7.009230495859242183e-02,-6.746199075671805989e-01
6.265822595809349416e-01,-2.578237055492074159e-01,6.881302452776306700e-01
-7.779732874589921909e-01,-9.604683584736917190e-01,4.971924238022211728e-01
9.251986631231079450e-01,-5.620075276604774572e-01,6.883283016349680539e-01
-4.155474015466515958e-01,6.316231561198473177e-01,-6.882897851661904376e-01
4.419657218540853361e-01,-9.131795369285393704e-01,6.883269875472779464e-01
-2.352616001849010541e-01,-6.073568522697645466e-01,6.557865445959847328e-01
-4.142443235431980675e-02,9.936081946092822914e-01,-6.882847528932465320e-01
-3.009132669545233618e-02,-6.394454433807599258e-01,6.852281116543438300e-01
-4.188244214187706316e-01,-1.162223956459225160e-01,-6.246389414789733641e-01
8.319140150407198231e-01,-2.445228906339633745e-01,6.882996790493447481e-01
-3.829611247631332649e-01,7.471653097930912590e-01,-6.883117686863183815e-01
7.245199891839380069e-01,-4.338956923717753877e-01,6.883159602785883235e-01
3.861824669377251773e-01,-3.498028371207184684e-01,6.874533811030940633e-01
-1.016164389434448534e-01,-8.959907453402840005e-01,6.878404112739093801e-01
-1.970111445867117617e-02,-1.745809160170919139e-01,4.470558589773817038e-01
3.613713665234068451e-01,-6.360907387449743489e-02,6.689642477442561130e-01
7.346051315100938783e-01,-1.528187911410616717e-01,6.881361466416141548e-01
2.967885551684938950e-01,-7.584130928460572907e-01,6.882927943606228505e-01
-1.268379724381540896e-03,-2.463259598001954487e-01,5.790270540609014915e-01
1.760022338696367594e-01,1.684790184497471088e-01,2.588002313929785997e-02
-8.854489229906297165e-01,7.014026315503458786e-01,-6.883286035413894721e-01
3.875849798760717668e-01,8.514518576525240690e-01,-6.751432385444534612e-01
-8.509723784573892669e-01,-3.870476812188483606e-01,-6.751507871926533122e-01
4.883803578068350859e-01,1.530063163451123032e-02,6.762935795257279947e-01
-8.464755324610844234e-01,-7.343618101722282354e-02,-6.877243197046546408e-01
1.119304105169420804e-01,6.738865000161271546e-01,-6.833547361233921480e-01
5.087331490876514373e-01,-8.097972252809810811e-01,6.883261948769103800e-01
5.654517942987353774e-01,9.802046888083031373e-01,-6.669113520450822286e-01
-3.233980791853710013e-01,9.198377631057939041e-01,-6.883232909010560396e-01
7.994519681963692115e-01,-4.270231840809495250e-01,6.883222892580137531e-01
7.268623596003618292e-01,-8.449148414982610156e-01,6.883285747938669985e-01
-7.028082764276486483e-01,-2.534702145373608495e-01,-6.731041815605486311e-01
3.394165430731967970e-01,9.264371869930709824e-01,-6.844543871460762041e-01
7.283782440970454353e-02,9.892879601563504544e-01,-6.881846722334118427e-01
1.053036519211416611e-01,6.147627534313682141e-02,1.484692509586132692e-01
-7.423046775274202425e-01,-4.955813734064737908e-01,-5.806914653363423051e-01
-9.268904751543396436e-01,4.541524265500069824e-01,-6.883273965639733483e-01
-9.452899938853007722e-01,-7.497466297972856797e-01,-5.176754419416847997e-01
1.130090335631350751e-01,4.716089949152069138e-01,-6.512115176809717410e-01
-9.435662246063709624e-01,1.575917594867792815e-01,-6.883060528001633260e-01
-6.546967033427668614e-01,2.434600552633716664e-01,-6.881557483668474529e-01
-5.814770596921763346e-01,7.576465331164683459e-01,-6.883266760413637719e-01
-1.881126423899293076e-01,5.975484273483189224e-01,-6.877959668408766269e-01
8.505354341099566895e-01,-1.973623723072177594e-01,6.882900677206731377e-01
-2.290911235771329046e-01,-1.716661366700347191e-01,-1.923785752312013320e-01
3.019432291348735919e-01,-9.179669189542389862e-01,6.883218488284101877e-01
-8.113505847918418556e-01,-4.461522587541955076e-03,-6.878978417466020678e-01
8.482473287315508426e-01,-6.439763817356844999e-01,6.883283250562381994e-01
9.301738941999664334e-01,6.392783411275442251e-01,6.171381963066633336e-01
3.524906929713056414e-02,8.253611722245419724e-01,-6.878191539025728662e-01
1.614728174973201202e-01,-1.908094872024204136e-01,6.488603169915347912e-01
-3.927980531867518721e-01,5.040346570290399342e-02,-6.721519784642236983e-01
9.238040883941756043e-02,7.115537626610786148e-01,-6.855175110199984712e-01
8.764426990698863662e-01,3.386303991395887003e-01,6.820026739385546266e-01
3.495561278925531923e-01,-2.339420704926828964e-01,6.843158865903407051e-01
-8.256483032788208831e-02,-4.091208867621065615e-02,-1.413166426137644760e-01
-3.099492884793786374e-02,-4.613265941731254927e-01,6.699597863878493653e-01
4.825557047810451472e-01,-5.344257004023122981e-01,6.882760432648916682e-01
-4.667241676368052428e-01,-4.891041608960671194e-01,7.670408157346057798e-02
7.659820056326862581e-01,6.005054425726668033e-01,4.674221847681718223e-01
1.180134922191420355e-01,7.242571353975297832e-01,-6.851303781445847729e-01
9.364611890247287462e-01,-2.052805471160144002e-01,6.883136341694612303e-01
-9.874951160268297112e-01,-7.501347249543608431e-01,-5.710268132173578204e-01
2.803614966377745432e-01,-5.643591958386344754e-01,6.880335523155787225e-01
-2.207813886623155586e-01,1.767564069583071884e-02,-5.721982417309667834e-01
4.943606714677959424e-01,5.556801775449338177e-01,-2.046667071453982245e-01
7.085354340529130823e-01,5.928050813052661017e-01,3.590906710251904332e-01
5.073016406220414165e-01,8.524957358412037500e-01,-6.460502103792611361e-01
4.456852590483701970e-01,8.385877622347703841e-01,-6.617817806004792081e-01
6.418866610300808517e-01,-3.303083503756547579e-01,6.882462504701237771e-01
1.892842753125345556e-01,-8.123400730405012649e-01,6.882672898429867958e-01
-8.689363952502819899e-01,4.400767685636530757e-01,-6.883259367344268798e-01
5.617676153283548413e-01,9.651629008238293839e-01,-6.643801384354790507e-01
-9.214406524565910139e-02,-4.651583957067939590e-01,6.560772882531155092e-01
4.889361687535351830e-01,-9.069471851813442065e-01,6.883275873963072833e-01
-6.250795501950430211e-01,2.736053501185995440e-01,-6.881566596973688332e-01
6.227385305026944540e-01,-8.179620429541178961e-01,6.883280182552081738e-01
7.517618634260703203e-03,3.611232417858072363e-01,-6.493644844614927525e-01
-8.255564252606411024e-01,-4.593010474996481740e-01,-6.538785049616859801e-01
-6.970617323583363500e-01,7.393402235123136546e-01,-6.883279847865022560e-01
-6.051280758462407317e-01,-2.453030794751389632e-01,-6.516514030123011780e-01
-3.140693783517205517e-01,-5.598758624162729625e-01,5.797782581507888722e-01
-8.266669669556552247e-01,4.050914235198610491e-01,-6.883226232886647811e-01
-1.922098054143355217e-01,6.362332976253566308e-01,-6.879813771787985921e-01
-1.367930683211273646e-01,-2.306633537997917482e-01,3.012643893034814835e-01
-3.956547429486323431e-01,-7.673556381541342120e-01,6.556610099886114318e-01
-6.171310691174740626e-01,5.038364708523623836e-01,-6.883101370586368617e-01
-7.670981736688331498e-01,7.000995326910168792e-01,-6.883281956223816778e-01
7.316254808281303923e-01,-1.229177109705821280e-01,6.880611670129248569e-01
-8.204383249694673363e-01,2.504038721962964509e-01,-6.882980045545162850e-01
-8.534516922645956072e-01,-8.413300093268893942e-01,-4.166750844807348697e-02
-4.780213437055851333e-01,5.393796497168108495e-01,-6.882762640710060609e-01
-8.520987630043044270e-01,7.710200655794126057e-01,-6.883286572886285759e-01
6.172886299368607332e-01,-9.833504036201654586e-01,6.883286262979567693e-01
-9.561309854777881867e-01,-2.730664349254783296e-01,-6.868433733959884435e-01
-8.382761415409094585e-01,-9.781208853047496099e-01,4.156644110626326327e-01
1.375754059944516161e-01,-7.991001504773660447e-01,6.882110579901078440e-01
-9.281827731957534855e-01,-9.490570703775080830e-02,-6.879977671425872021e-01
-2.682326298368375994e-02,-4.946848972701374247e-01,6.756548330730528518e-01
9.025779710976016279e-01,8.213762993835738158e-02,6.879524405155824640e-01
-8.248053598258244801e-01,-2.039000712363217005e-01,-6.855656842754559444e-01
-3.270579184965731745e-01,8.232465206543542191e-01,-6.883148770954783391e-01
-3.498964980698335836e-01,2.246833551656230998e-01,-6.839427516546867647e-01
1.654621318244657857e-01,-6.649821982355690331e-01,6.879882586958612212e-01
-8.097063446649186425e-01,6.794555592888817941e-02,-6.881163750373026078e-01
-4.583860582153955754e-01,-4.240892673123493051e-01,-1.168937595698648080e-01
-4.651810753558927036e-01,4.904645155153370961e-01,-6.882313981338040731e-01
2.255632861626999386e-02,2.562494030336313067e-01,-5.670311960222612635e-01
-2.981319604696095471e-01,-2.381131545056554000e-01,-2.005780843769902066e-01
9.606765429669648082e-01,-9.652795456788560990e-01,6.883287742836542433e-01
7.798011573773138139e-01,2.903594794301693760e-01,6.780966107745529659e-01
8.356505241791889471e-01,-9.250718533059245630e-01,6.883287491803299352e-01
9.052970078112250185e-01,-9.793474538917343875e-01,6.883287712401902070e-01
-5.717594246102064570e-01,-2.353460317801923107e-01,-6.422997290477876486e-01
5.259936358681862600e-01,-8.128105677928718631e-01,6.883266693100689171e-01
-7.237366163965779364e-01,6.047079858439929900e-02,-6.877881680689273969e-01
4.321303525199322593e-01,4.592182251099905521e-01,-9.266091807651659351e-02
9.034148063808675744e-01,-7.700529232746775588e-01,6.883287059233805794e-01
-9.531438493661770206e-01,-8.698811897372904500e-01,-2.710776721581872328e-01
-2.058669613157102507e-01,5.838852602077109211e-01,-6.878173172306358829e-01
-6.437781716900794482e-01,-8.129751982172923608e-01,4.742352547482592828e-01
-9.988543240712344229e-01,8.701485834351769810e-01,-6.883287697175167752e-01
4.419222503445829897e-01,-7.227018999083165696e-01,6.883167319908862769e-01
-6.002609960799072386e-01,-2.116033285344551818e-01,-6.606537863534553967e-01
1.111439635616096044e-01,8.221417178891960997e-01,-6.872050882706799424e-01
4.771488379045583095e-01,2.574092966370544744e-01,5.506841890989239152e-01
3.200135584369327990e-01,1.560794874839954716e-02,6.257255756614436004e-01
-8.615942755067349523e-01,-4.118304333214277690e-01,-6.731681547367440732e-01
6.623520509800260303e-01,-7.082934934117470771e-01,6.883272449539071802e-01
5.494542046772705746e-01,7.942918858450802588e-01,-5.788055792046639114e-01
-7.243845621472968510e-01,5.463596728716924034e-02,-6.877593990746043717e-01
7.144468868002527007e-01,4.169631563465014956e-02,6.866821823488452603e-01
-8.469729349276788888e-02,-5.673895116004130657e-01,6.773878329728315606e-01
-1.961555948322106779e-01,8.007173751890461766e-01,-6.882642978204583928e-01
3.042247220764071614e-03,4.796577801011117081e-01,-6.767081563759771434e-01
5.715506870770092895e-02,-5.257730623451795093e-01,6.842930123203427861e-01
-5.315936195903816497e-01,3.225057390655028389e-01,-6.880599768494599644e-01
5.702253449730976254e-01,-7.048387027574465336e-01,6.883247873019454621e-01
3.959632964259027776e-01,-2.649940382893947177e-01,6.864763583012190029e-01
-5.362426268222642012e-01,-4.879248394816892986e-01,-1.631311703232680987e-01
2.105361928900346680e-01,-8.524953283870417842e-02,6.203680606015417043e-01
7.661878990492005936e-01,4.490374280193738521e-01,6.329152225241331253e-01
-8.299103389662298991e-01,-6.564933332341833516e-01,-4.817544843156584267e-01
-8.141148988675519504e-01,-7.977780090473782781e-01,-5.610103744342874454e-02
-3.462282065058306380e-01,9.267222566896027303e-02,-6.714497373057061180e-01
-4.279605823371683826e-01,-4.023002451124966239e-01,-8.783232576246760570e-02
-9.648386351098423575e-01,-6.612821539519373459e-01,-6.252162046933833484e-01
-5.734691450436038007e-01,-7.921767627113951438e-01,5.494005315854590954e-01
4.855468307082724255e-01,9.445852119336708430e-01,-6.744975075766665995e-01
